EESchema Schematic File Version 4
LIBS:temp_node-cache
EELAYER 26 0
EELAYER END
$Descr A4 11693 8268
encoding utf-8
Sheet 1 1
Title ""
Date ""
Rev ""
Comp ""
Comment1 ""
Comment2 ""
Comment3 ""
Comment4 ""
$EndDescr
$Comp
L MCU_Microchip_ATtiny:ATtiny2313A-PU U1
U 1 1 5C4C8F37
P 5400 3750
F 0 "U1" H 5400 5028 50  0000 C CNN
F 1 "ATtiny2313A-PU" V 5400 3700 50  0000 C CNN
F 2 "Package_DIP:DIP-20_W7.62mm" H 5400 3750 50  0001 C CIN
F 3 "http://ww1.microchip.com/downloads/en/DeviceDoc/doc8246.pdf" H 5400 3750 50  0001 C CNN
	1    5400 3750
	1    0    0    -1  
$EndComp
$Comp
L Sensor:DHT11 U2
U 1 1 5C4C9407
P 7150 5100
F 0 "U2" H 6921 5054 50  0000 R CNN
F 1 "DHT22" H 6921 5145 50  0000 R CNN
F 2 "Connector_PinHeader_2.54mm:PinHeader_1x04_P2.54mm_Vertical" H 7300 5350 50  0001 C CNN
F 3 "http://akizukidenshi.com/download/ds/aosong/DHT11.pdf" H 7300 5350 50  0001 C CNN
	1    7150 5100
	0    -1   -1   0   
$EndComp
$Comp
L Connector:AVR-ISP-10 J1
U 1 1 5C4C9914
P 6700 1850
F 0 "J1" V 6283 1900 50  0000 C CNN
F 1 "AVR-ISP-10" V 6374 1900 50  0000 C CNN
F 2 "Connector_IDC:IDC-Header_2x05_P2.54mm_Vertical" V 6450 1900 50  0001 C CNN
F 3 " ~" H 5425 1300 50  0001 C CNN
	1    6700 1850
	0    1    1    0   
$EndComp
Text GLabel 6350 3600 3    50   Input ~ 0
MISO
Text GLabel 6900 2300 3    50   Input ~ 0
MISO
Text GLabel 6800 2300 3    50   Input ~ 0
MOSI
Text GLabel 6350 3350 1    50   Input ~ 0
MOSI
Text GLabel 6000 3650 2    50   Input ~ 0
SCK
Text GLabel 6700 2300 3    50   Input ~ 0
SCK
Wire Wire Line
	6900 2250 6900 2300
Wire Wire Line
	6800 2250 6800 2300
Wire Wire Line
	6700 2250 6700 2300
Text GLabel 6600 2300 3    50   Input ~ 0
RST
Wire Wire Line
	6600 2250 6600 2300
$Comp
L Device:R R1
U 1 1 5C4CA34E
P 4600 2700
F 0 "R1" H 4670 2746 50  0000 L CNN
F 1 "10K om" H 4670 2655 50  0000 L CNN
F 2 "Resistors:AXIAL-0.3" V 4530 2700 50  0001 C CNN
F 3 "~" H 4600 2700 50  0001 C CNN
	1    4600 2700
	1    0    0    -1  
$EndComp
Wire Wire Line
	4600 2850 4600 2950
Wire Wire Line
	4600 2950 4800 2950
Wire Wire Line
	4600 2550 4600 2400
$Comp
L Switch:SW_Push ResetButton1
U 1 1 5C4CA987
P 3900 2950
F 0 "ResetButton1" H 3900 3235 50  0000 C CNN
F 1 "SW_Push" H 3900 3144 50  0000 C CNN
F 2 "Button_Switch_THT:SW_PUSH_6mm" H 3900 3150 50  0001 C CNN
F 3 "" H 3900 3150 50  0001 C CNN
	1    3900 2950
	1    0    0    -1  
$EndComp
Wire Wire Line
	4600 2950 4300 2950
Connection ~ 4600 2950
$Comp
L power:GND #PWR01
U 1 1 5C4CAAF6
P 3700 3250
F 0 "#PWR01" H 3700 3000 50  0001 C CNN
F 1 "GND" H 3705 3077 50  0000 C CNN
F 2 "" H 3700 3250 50  0001 C CNN
F 3 "" H 3700 3250 50  0001 C CNN
	1    3700 3250
	1    0    0    -1  
$EndComp
Wire Wire Line
	3700 2950 3700 3250
Text GLabel 4300 2800 1    50   Input ~ 0
RST
Wire Wire Line
	4300 2800 4300 2950
Connection ~ 4300 2950
Wire Wire Line
	4300 2950 4100 2950
Wire Wire Line
	7200 1750 7550 1750
Wire Wire Line
	7550 1750 7550 1500
Wire Wire Line
	5400 2650 5400 2250
$Comp
L power:GND #PWR04
U 1 1 5C4CB44D
P 5400 5100
F 0 "#PWR04" H 5400 4850 50  0001 C CNN
F 1 "GND" H 5405 4927 50  0000 C CNN
F 2 "" H 5400 5100 50  0001 C CNN
F 3 "" H 5400 5100 50  0001 C CNN
	1    5400 5100
	1    0    0    -1  
$EndComp
Wire Wire Line
	5400 4850 5400 5100
$Comp
L power:GND #PWR014
U 1 1 5C4DF603
P 8700 3950
F 0 "#PWR014" H 8700 3700 50  0001 C CNN
F 1 "GND" H 8705 3777 50  0000 C CNN
F 2 "" H 8700 3950 50  0001 C CNN
F 3 "" H 8700 3950 50  0001 C CNN
	1    8700 3950
	1    0    0    -1  
$EndComp
Wire Wire Line
	8700 3750 8700 3950
Text GLabel 8200 3050 0    50   Input ~ 0
SCK
Wire Wire Line
	7150 4800 7150 4450
Wire Wire Line
	6600 4450 6600 4350
Wire Wire Line
	6600 4350 6000 4350
Wire Wire Line
	8200 3450 8000 3450
Wire Wire Line
	8000 3450 8000 3700
Wire Wire Line
	8000 3700 7050 3700
Wire Wire Line
	7050 3700 7050 4050
Wire Wire Line
	7050 4050 6000 4050
$Comp
L Device:Battery_Cell CoinBattery1
U 1 1 5C4E1A8A
P 4350 1450
F 0 "CoinBattery1" V 4605 1500 50  0000 C CNN
F 1 "3,3V" V 4514 1500 50  0000 C CNN
F 2 "Connector_PinHeader_2.54mm:PinHeader_1x02_P2.54mm_Vertical" V 4350 1510 50  0001 C CNN
F 3 "~" V 4350 1510 50  0001 C CNN
	1    4350 1450
	0    -1   -1   0   
$EndComp
$Comp
L power:GND #PWR07
U 1 1 5C4E2074
P 4750 1450
F 0 "#PWR07" H 4750 1200 50  0001 C CNN
F 1 "GND" V 4755 1322 50  0000 R CNN
F 2 "" H 4750 1450 50  0001 C CNN
F 3 "" H 4750 1450 50  0001 C CNN
	1    4750 1450
	0    -1   -1   0   
$EndComp
$Comp
L power:+3.3V #PWR02
U 1 1 5C4E20EA
P 3300 1450
F 0 "#PWR02" H 3300 1300 50  0001 C CNN
F 1 "+3.3V" V 3315 1578 50  0000 L CNN
F 2 "" H 3300 1450 50  0001 C CNN
F 3 "" H 3300 1450 50  0001 C CNN
	1    3300 1450
	0    -1   -1   0   
$EndComp
Wire Wire Line
	4450 1450 4650 1450
$Comp
L Device:CP_Small Kon.Electrolityczny1
U 1 1 5C4E32D8
P 3950 1650
F 0 "Kon.Electrolityczny1" H 4038 1696 50  0000 L CNN
F 1 "10uF" H 4038 1605 50  0000 L CNN
F 2 "Capacitors:CAP-PTH-2.54" H 3950 1650 50  0001 C CNN
F 3 "~" H 3950 1650 50  0001 C CNN
	1    3950 1650
	1    0    0    -1  
$EndComp
$Comp
L Device:C_Small Kondensator1
U 1 1 5C4E39C4
P 3650 1650
F 0 "Kondensator1" H 3450 1550 50  0000 L CNN
F 1 "4,7nF" H 3550 1450 50  0000 L CNN
F 2 "Capacitors:CAP-PTH-2.54" H 3650 1650 50  0001 C CNN
F 3 "~" H 3650 1650 50  0001 C CNN
	1    3650 1650
	1    0    0    -1  
$EndComp
$Comp
L power:GND #PWR05
U 1 1 5C4E3AB6
P 3950 1900
F 0 "#PWR05" H 3950 1650 50  0001 C CNN
F 1 "GND" H 3955 1727 50  0000 C CNN
F 2 "" H 3950 1900 50  0001 C CNN
F 3 "" H 3950 1900 50  0001 C CNN
	1    3950 1900
	1    0    0    -1  
$EndComp
$Comp
L power:GND #PWR03
U 1 1 5C4E3B32
P 3650 1900
F 0 "#PWR03" H 3650 1650 50  0001 C CNN
F 1 "GND" H 3655 1727 50  0000 C CNN
F 2 "" H 3650 1900 50  0001 C CNN
F 3 "" H 3650 1900 50  0001 C CNN
	1    3650 1900
	1    0    0    -1  
$EndComp
Wire Wire Line
	3950 1450 3950 1550
Wire Wire Line
	3650 1450 3650 1550
Wire Wire Line
	3950 1750 3950 1900
Wire Wire Line
	3650 1750 3650 1900
$Comp
L Connector_Generic:Conn_02x01_Row_Letter_First ExternalVcc1
U 1 1 5C4E6CEC
P 4250 1000
F 0 "ExternalVcc1" H 4300 1217 50  0000 C CNN
F 1 "3,3V" H 4300 1126 50  0000 C CNN
F 2 "Connector_PinHeader_2.54mm:PinHeader_1x02_P2.54mm_Vertical" H 4250 1000 50  0001 C CNN
F 3 "~" H 4250 1000 50  0001 C CNN
	1    4250 1000
	1    0    0    -1  
$EndComp
Wire Wire Line
	3650 1450 3950 1450
Connection ~ 3950 1450
Wire Wire Line
	3950 1450 4000 1450
Wire Wire Line
	3650 1450 3300 1450
Connection ~ 3650 1450
Wire Wire Line
	4550 1000 4650 1000
Wire Wire Line
	4650 1000 4650 1450
Connection ~ 4650 1450
Wire Wire Line
	4650 1450 4750 1450
Wire Wire Line
	4050 1000 4000 1000
Wire Wire Line
	4000 1000 4000 1450
Connection ~ 4000 1450
Wire Wire Line
	4000 1450 4150 1450
Wire Wire Line
	6350 3350 6350 3450
Wire Wire Line
	6350 3450 6000 3450
Wire Wire Line
	6350 3450 6500 3450
Wire Wire Line
	6500 3450 6500 3350
Connection ~ 6350 3450
Wire Wire Line
	6000 3550 6350 3550
Wire Wire Line
	6350 3550 6350 3600
Wire Wire Line
	6350 3550 6500 3550
Wire Wire Line
	6500 3550 6500 3600
Connection ~ 6350 3550
$Comp
L RF:NRF24L01_Breakout U3
U 1 1 5C4DEBBA
P 8700 3150
F 0 "U3" H 9178 3128 50  0000 L CNN
F 1 "NRF24L01_Breakout" H 9178 3037 50  0000 L CNN
F 2 "RF_Module:nRF24L01_Breakout" H 8850 3750 50  0001 L CIN
F 3 "http://www.nordicsemi.com/eng/content/download/2730/34105/file/nRF24L01_Product_Specification_v2_0.pdf" H 8700 3050 50  0001 C CNN
	1    8700 3150
	1    0    0    -1  
$EndComp
Text GLabel 6500 3350 1    50   Input ~ 0
DI
Text GLabel 6500 3600 3    50   Input ~ 0
DO
Text GLabel 8200 2950 0    50   Input ~ 0
DI
Text GLabel 8200 2850 0    50   Input ~ 0
DO
Text GLabel 6000 2950 2    50   Input ~ 0
CSN
Text GLabel 8200 3150 0    50   Input ~ 0
CSN
Text GLabel 8200 3350 0    50   Input ~ 0
CE
Text GLabel 6000 3050 2    50   Input ~ 0
CE
$Comp
L Device:CP_Small Kon.Electrolityczny2
U 1 1 5C4EFD01
P 9550 2300
F 0 "Kon.Electrolityczny2" H 9638 2346 50  0000 L CNN
F 1 "10uF" H 9638 2255 50  0000 L CNN
F 2 "Capacitors:CAP-PTH-2.54" H 9550 2300 50  0001 C CNN
F 3 "~" H 9550 2300 50  0001 C CNN
	1    9550 2300
	0    -1   -1   0   
$EndComp
$Comp
L Device:C_Small Kondensator2
U 1 1 5C4EFD08
P 9550 2600
F 0 "Kondensator2" H 9350 2500 50  0000 L CNN
F 1 "4,7nF" H 9450 2400 50  0000 L CNN
F 2 "Capacitors:CAP-PTH-2.54" H 9550 2600 50  0001 C CNN
F 3 "~" H 9550 2600 50  0001 C CNN
	1    9550 2600
	0    -1   -1   0   
$EndComp
$Comp
L power:GND #PWR015
U 1 1 5C4EFD0F
P 9800 2300
F 0 "#PWR015" H 9800 2050 50  0001 C CNN
F 1 "GND" H 9805 2127 50  0000 C CNN
F 2 "" H 9800 2300 50  0001 C CNN
F 3 "" H 9800 2300 50  0001 C CNN
	1    9800 2300
	0    -1   -1   0   
$EndComp
$Comp
L power:GND #PWR016
U 1 1 5C4EFD15
P 9800 2600
F 0 "#PWR016" H 9800 2350 50  0001 C CNN
F 1 "GND" H 9805 2427 50  0000 C CNN
F 2 "" H 9800 2600 50  0001 C CNN
F 3 "" H 9800 2600 50  0001 C CNN
	1    9800 2600
	0    -1   -1   0   
$EndComp
Wire Wire Line
	9650 2300 9800 2300
Wire Wire Line
	9650 2600 9800 2600
Wire Wire Line
	8700 2150 8700 2300
Wire Wire Line
	9450 2300 8700 2300
Connection ~ 8700 2300
Wire Wire Line
	8700 2300 8700 2400
Wire Wire Line
	9450 2600 9350 2600
Wire Wire Line
	9350 2600 9350 2400
Wire Wire Line
	9350 2400 8700 2400
Connection ~ 8700 2400
Wire Wire Line
	8700 2400 8700 2550
$Comp
L power:+3.3V #PWR013
U 1 1 5C4F4C1C
P 8700 2150
F 0 "#PWR013" H 8700 2000 50  0001 C CNN
F 1 "+3.3V" H 8715 2323 50  0000 C CNN
F 2 "" H 8700 2150 50  0001 C CNN
F 3 "" H 8700 2150 50  0001 C CNN
	1    8700 2150
	1    0    0    -1  
$EndComp
$Comp
L power:+3.3V #PWR011
U 1 1 5C4F4C7C
P 7550 1500
F 0 "#PWR011" H 7550 1350 50  0001 C CNN
F 1 "+3.3V" H 7565 1673 50  0000 C CNN
F 2 "" H 7550 1500 50  0001 C CNN
F 3 "" H 7550 1500 50  0001 C CNN
	1    7550 1500
	1    0    0    -1  
$EndComp
$Comp
L power:+3.3V #PWR08
U 1 1 5C4F4CC2
P 5400 2250
F 0 "#PWR08" H 5400 2100 50  0001 C CNN
F 1 "+3.3V" H 5415 2423 50  0000 C CNN
F 2 "" H 5400 2250 50  0001 C CNN
F 3 "" H 5400 2250 50  0001 C CNN
	1    5400 2250
	1    0    0    -1  
$EndComp
$Comp
L power:GND #PWR09
U 1 1 5C4F4D34
P 6100 1850
F 0 "#PWR09" H 6100 1600 50  0001 C CNN
F 1 "GND" H 6105 1677 50  0000 C CNN
F 2 "" H 6100 1850 50  0001 C CNN
F 3 "" H 6100 1850 50  0001 C CNN
	1    6100 1850
	1    0    0    -1  
$EndComp
Wire Wire Line
	6300 1750 6100 1750
Wire Wire Line
	6100 1750 6100 1850
Wire Wire Line
	7150 5550 7100 5550
Wire Wire Line
	7150 4450 6700 4450
Wire Wire Line
	6850 5200 6700 5200
$Comp
L Device:R_Small R2
U 1 1 5C4FD347
P 6700 4800
F 0 "R2" H 6759 4846 50  0000 L CNN
F 1 "4,7K om" H 6759 4755 50  0000 L CNN
F 2 "Resistors:AXIAL-0.3" H 6700 4800 50  0001 C CNN
F 3 "~" H 6700 4800 50  0001 C CNN
	1    6700 4800
	1    0    0    -1  
$EndComp
Wire Wire Line
	6700 4700 6700 4450
Connection ~ 6700 4450
Wire Wire Line
	6700 4450 6600 4450
Wire Wire Line
	6700 4900 6700 5200
Connection ~ 6700 5200
Wire Wire Line
	6700 5200 6500 5200
$Comp
L power:+3.3V #PWR010
U 1 1 5C4FF1FD
P 6500 5050
F 0 "#PWR010" H 6500 4900 50  0001 C CNN
F 1 "+3.3V" H 6515 5223 50  0000 C CNN
F 2 "" H 6500 5050 50  0001 C CNN
F 3 "" H 6500 5050 50  0001 C CNN
	1    6500 5050
	1    0    0    -1  
$EndComp
$Comp
L power:GND #PWR012
U 1 1 5C4FF24D
P 7550 5350
F 0 "#PWR012" H 7550 5100 50  0001 C CNN
F 1 "GND" H 7555 5177 50  0000 C CNN
F 2 "" H 7550 5350 50  0001 C CNN
F 3 "" H 7550 5350 50  0001 C CNN
	1    7550 5350
	1    0    0    -1  
$EndComp
Wire Wire Line
	7450 5200 7550 5200
Wire Wire Line
	7550 5200 7550 5350
Wire Wire Line
	6500 5200 6500 5050
Text Notes 7400 7500 0    50   ~ 0
Temp node device for Home Hub Project
Text Notes 8150 7650 0    50   ~ 0
27.01.2019\n
$Comp
L power:+3.3V #PWR06
U 1 1 5C501F45
P 4600 2400
F 0 "#PWR06" H 4600 2250 50  0001 C CNN
F 1 "+3.3V" H 4615 2573 50  0000 C CNN
F 2 "" H 4600 2400 50  0001 C CNN
F 3 "" H 4600 2400 50  0001 C CNN
	1    4600 2400
	1    0    0    -1  
$EndComp
Text Notes 7450 7250 0    50   ~ 0
Home Hub Project\n
$EndSCHEMATC
