%!PS-Adobe-3.0
%%Creator: PCBNEW
%%CreationDate: Tue Jan 29 21:41:42 2019
%%Title: /home/Grzegorz/Projects/Home_Hub_Project/temp_node/PCB/temp_node/Gerber/temp_node-PTH-drl_map.ps
%%Pages: 1
%%PageOrder: Ascend
%%BoundingBox: 0 0 596 842
%%DocumentMedia: A4 595 842 0 () ()
%%Orientation: Landscape
%%EndComments
%%BeginProlog
/line { newpath moveto lineto stroke } bind def
/cir0 { newpath 0 360 arc stroke } bind def
/cir1 { newpath 0 360 arc gsave fill grestore stroke } bind def
/cir2 { newpath 0 360 arc gsave fill grestore stroke } bind def
/arc0 { newpath arc stroke } bind def
/arc1 { newpath 4 index 4 index moveto arc closepath gsave fill
    grestore stroke } bind def
/arc2 { newpath 4 index 4 index moveto arc closepath gsave fill
    grestore stroke } bind def
/poly0 { stroke } bind def
/poly1 { closepath gsave fill grestore stroke } bind def
/poly2 { closepath gsave fill grestore stroke } bind def
/rect0 { rectstroke } bind def
/rect1 { rectfill } bind def
/rect2 { rectfill } bind def
/linemode0 { 0 setlinecap 0 setlinejoin 0 setlinewidth } bind def
/linemode1 { 1 setlinecap 1 setlinejoin } bind def
/dashedline { [200] 100 setdash } bind def
/solidline { [] 0 setdash } bind def
/phantomshow { moveto
    /KicadFont findfont 0.000001 scalefont setfont
    show } bind def
/textshow { gsave
    findfont exch scalefont setfont concat 1 scale 0 0 moveto show
    } bind def
/reencodefont {
  findfont dup length dict begin
  { 1 index /FID ne
    { def }
    { pop pop } ifelse
  } forall
  /Encoding ISOLatin1Encoding def
  currentdict
  end } bind def
/KicadFont /Helvetica reencodefont definefont pop
/KicadFont-Bold /Helvetica-Bold reencodefont definefont pop
/KicadFont-Oblique /Helvetica-Oblique reencodefont definefont pop
/KicadFont-BoldOblique /Helvetica-BoldOblique reencodefont definefont pop
%%EndProlog
%%Page: 1 1
%%BeginPageSetup
gsave
0.0072 0.0072 scale
linemode1
82680 0 translate 90 rotate
88.4992 setlinewidth
%%EndPageSetup
0 0 0 setrgbcolor
139.369 setlinewidth
newpath
76341.8 78673.3 moveto
76164.8 37078.7 lineto
stroke
0 0 0 setrgbcolor
newpath
40588.2 78673.3 moveto
76341.8 78673.3 lineto
stroke
0 0 0 setrgbcolor
newpath
40588.2 37078.7 moveto
40588.2 78673.3 lineto
stroke
0 0 0 setrgbcolor
newpath
76164.8 37078.7 moveto
40588.2 37078.7 lineto
stroke
78.7399 setlinewidth
newpath
42926.8 46953 moveto
43205.5 46674.2 lineto
stroke
newpath
43205.5 46953 moveto
42926.8 46674.2 lineto
stroke
newpath
43634.8 63767.8 moveto
43913.5 63489.1 lineto
stroke
newpath
43913.5 63767.8 moveto
43634.8 63489.1 lineto
stroke
newpath
46997.7 73325.7 moveto
47276.5 73047 lineto
stroke
newpath
47276.5 73325.7 moveto
46997.7 73047 lineto
stroke
newpath
51599.7 45360 moveto
51878.4 45081.2 lineto
stroke
newpath
51878.4 45360 moveto
51599.7 45081.2 lineto
stroke
newpath
51776.7 48723 moveto
52055.4 48444.2 lineto
stroke
newpath
52055.4 48723 moveto
51776.7 48444.2 lineto
stroke
newpath
53900.7 60404.8 moveto
54179.4 60126.1 lineto
stroke
newpath
54179.4 60404.8 moveto
53900.7 60126.1 lineto
stroke
newpath
58856.6 60404.8 moveto
59135.4 60126.1 lineto
stroke
newpath
59135.4 60404.8 moveto
58856.6 60126.1 lineto
stroke
newpath
59210.6 40404 moveto
59489.4 40125.3 lineto
stroke
newpath
59489.4 40404 moveto
59210.6 40125.3 lineto
stroke
newpath
68591.5 69608.8 moveto
68870.3 69330 lineto
stroke
newpath
68870.3 69608.8 moveto
68591.5 69330 lineto
stroke
newpath
70007.5 45537 moveto
70286.3 45258.2 lineto
stroke
newpath
70286.3 45537 moveto
70007.5 45258.2 lineto
stroke
50976.7 55619.3 243.373 cir0
52746.6 55619.3 243.373 cir0
59090.5 63942.5 243.373 cir0
59090.5 62172.5 243.373 cir0
50976.7 53318.4 243.373 cir0
52746.6 53318.4 243.373 cir0
56789.5 63942.5 243.373 cir0
56789.5 62172.5 243.373 cir0
newpath
63244 61770 moveto
63244 61239 lineto
stroke
newpath
62978.5 61504.5 moveto
63509.5 61504.5 lineto
stroke
newpath
63244 60000 moveto
63244 59469 lineto
stroke
newpath
62978.5 59734.5 moveto
63509.5 59734.5 lineto
stroke
newpath
65013.9 61770 moveto
65013.9 61239 lineto
stroke
newpath
64748.4 61504.5 moveto
65279.4 61504.5 lineto
stroke
newpath
65013.9 60000 moveto
65013.9 59469 lineto
stroke
newpath
64748.4 59734.5 moveto
65279.4 59734.5 lineto
stroke
newpath
66783.9 61770 moveto
66783.9 61239 lineto
stroke
newpath
66518.4 61504.5 moveto
67049.4 61504.5 lineto
stroke
newpath
66783.9 60000 moveto
66783.9 59469 lineto
stroke
newpath
66518.4 59734.5 moveto
67049.4 59734.5 lineto
stroke
newpath
68553.9 61770 moveto
68553.9 61239 lineto
stroke
newpath
68288.4 61504.5 moveto
68819.4 61504.5 lineto
stroke
newpath
68553.9 60000 moveto
68553.9 59469 lineto
stroke
newpath
68288.4 59734.5 moveto
68819.4 59734.5 lineto
stroke
newpath
55830.1 56705.4 moveto
55830.1 57099.6 lineto
55435.9 57099.6 lineto
55435.9 56705.4 lineto
55830.1 56705.4 lineto
poly0
newpath
55830.1 51395.5 moveto
55830.1 51789.7 lineto
55435.9 51789.7 lineto
55435.9 51395.5 lineto
55830.1 51395.5 lineto
poly0
newpath
57600.1 56705.4 moveto
57600.1 57099.6 lineto
57205.9 57099.6 lineto
57205.9 56705.4 lineto
57600.1 56705.4 lineto
poly0
newpath
57600.1 51395.5 moveto
57600.1 51789.7 lineto
57205.9 51789.7 lineto
57205.9 51395.5 lineto
57600.1 51395.5 lineto
poly0
newpath
59370.1 56705.4 moveto
59370.1 57099.6 lineto
58975.9 57099.6 lineto
58975.9 56705.4 lineto
59370.1 56705.4 lineto
poly0
newpath
59370.1 51395.5 moveto
59370.1 51789.7 lineto
58975.9 51789.7 lineto
58975.9 51395.5 lineto
59370.1 51395.5 lineto
poly0
newpath
61140.1 56705.4 moveto
61140.1 57099.6 lineto
60745.9 57099.6 lineto
60745.9 56705.4 lineto
61140.1 56705.4 lineto
poly0
newpath
61140.1 51395.5 moveto
61140.1 51789.7 lineto
60745.9 51789.7 lineto
60745.9 51395.5 lineto
61140.1 51395.5 lineto
poly0
newpath
62910.1 56705.4 moveto
62910.1 57099.6 lineto
62515.9 57099.6 lineto
62515.9 56705.4 lineto
62910.1 56705.4 lineto
poly0
newpath
62910.1 51395.5 moveto
62910.1 51789.7 lineto
62515.9 51789.7 lineto
62515.9 51395.5 lineto
62910.1 51395.5 lineto
poly0
newpath
64680 56705.4 moveto
64680 57099.6 lineto
64285.8 57099.6 lineto
64285.8 56705.4 lineto
64680 56705.4 lineto
poly0
newpath
64680 51395.5 moveto
64680 51789.7 lineto
64285.8 51789.7 lineto
64285.8 51395.5 lineto
64680 51395.5 lineto
poly0
newpath
66450 56705.4 moveto
66450 57099.6 lineto
66055.8 57099.6 lineto
66055.8 56705.4 lineto
66450 56705.4 lineto
poly0
newpath
66450 51395.5 moveto
66450 51789.7 lineto
66055.8 51789.7 lineto
66055.8 51395.5 lineto
66450 51395.5 lineto
poly0
newpath
68220 56705.4 moveto
68220 57099.6 lineto
67825.8 57099.6 lineto
67825.8 56705.4 lineto
68220 56705.4 lineto
poly0
newpath
68220 51395.5 moveto
68220 51789.7 lineto
67825.8 51789.7 lineto
67825.8 51395.5 lineto
68220 51395.5 lineto
poly0
newpath
69990 56705.4 moveto
69990 57099.6 lineto
69595.8 57099.6 lineto
69595.8 56705.4 lineto
69990 56705.4 lineto
poly0
newpath
69990 51395.5 moveto
69990 51789.7 lineto
69595.8 51789.7 lineto
69595.8 51395.5 lineto
69990 51395.5 lineto
poly0
newpath
71760 56705.4 moveto
71760 57099.6 lineto
71365.8 57099.6 lineto
71365.8 56705.4 lineto
71760 56705.4 lineto
poly0
newpath
71760 51395.5 moveto
71760 51789.7 lineto
71365.8 51789.7 lineto
71365.8 51395.5 lineto
71760 51395.5 lineto
poly0
newpath
67491.9 45084.3 moveto
67805.2 45397.6 lineto
67491.9 45710.9 lineto
67178.6 45397.6 lineto
67491.9 45084.3 lineto
poly0
newpath
72801.9 45084.3 moveto
73115.2 45397.6 lineto
72801.9 45710.9 lineto
72488.6 45397.6 lineto
72801.9 45084.3 lineto
poly0
newpath
49084.1 44907.3 moveto
49397.4 45220.6 lineto
49084.1 45533.9 lineto
48770.8 45220.6 lineto
49084.1 44907.3 lineto
poly0
newpath
54394 44907.3 moveto
54707.3 45220.6 lineto
54394 45533.9 lineto
54080.8 45220.6 lineto
54394 44907.3 lineto
poly0
newpath
46965.7 55834.9 moveto
47662.5 55138.1 lineto
stroke
newpath
47662.5 55834.9 moveto
46965.7 55138.1 lineto
stroke
47314.1 55486.5 348.422 cir0
newpath
46965.7 54065 moveto
47662.5 53368.1 lineto
stroke
newpath
47662.5 54065 moveto
46965.7 53368.1 lineto
stroke
47314.1 53716.5 348.422 cir0
newpath
46788.7 49994 moveto
47485.5 49297.2 lineto
stroke
newpath
47485.5 49994 moveto
46788.7 49297.2 lineto
stroke
47137.1 49645.6 348.422 cir0
newpath
46788.7 48224 moveto
47485.5 47527.2 lineto
stroke
newpath
47485.5 48224 moveto
46788.7 47527.2 lineto
stroke
47137.1 47875.6 348.422 cir0
newpath
67143.5 48401 moveto
67840.3 47704.2 lineto
stroke
newpath
67840.3 48401 moveto
67143.5 47704.2 lineto
stroke
67491.9 48052.6 348.422 cir0
newpath
68913.5 48401 moveto
69610.3 47704.2 lineto
stroke
newpath
69610.3 48401 moveto
68913.5 47704.2 lineto
stroke
69261.9 48052.6 348.422 cir0
newpath
70683.5 48401 moveto
71380.3 47704.2 lineto
stroke
newpath
71380.3 48401 moveto
70683.5 47704.2 lineto
stroke
71031.9 48052.6 348.422 cir0
newpath
72453.4 48401 moveto
73150.3 47704.2 lineto
stroke
newpath
73150.3 48401 moveto
72453.4 47704.2 lineto
stroke
72801.9 48052.6 348.422 cir0
newpath
49438.1 70708.4 moveto
50146.1 70000.4 lineto
stroke
newpath
50146.1 70708.4 moveto
49438.1 70000.4 lineto
stroke
newpath
49792.1 70708.4 moveto
49792.1 70000.4 lineto
stroke
newpath
49438.1 70354.4 moveto
50146.1 70354.4 lineto
stroke
newpath
49438.1 68938.4 moveto
50146.1 68230.4 lineto
stroke
newpath
50146.1 68938.4 moveto
49438.1 68230.4 lineto
stroke
newpath
49792.1 68938.4 moveto
49792.1 68230.4 lineto
stroke
newpath
49438.1 68584.4 moveto
50146.1 68584.4 lineto
stroke
newpath
49438.1 67168.4 moveto
50146.1 66460.4 lineto
stroke
newpath
50146.1 67168.4 moveto
49438.1 66460.4 lineto
stroke
newpath
49792.1 67168.4 moveto
49792.1 66460.4 lineto
stroke
newpath
49438.1 66814.4 moveto
50146.1 66814.4 lineto
stroke
newpath
49438.1 65398.4 moveto
50146.1 64690.4 lineto
stroke
newpath
50146.1 65398.4 moveto
49438.1 64690.4 lineto
stroke
newpath
49792.1 65398.4 moveto
49792.1 64690.4 lineto
stroke
newpath
49438.1 65044.4 moveto
50146.1 65044.4 lineto
stroke
newpath
49438.1 63628.4 moveto
50146.1 62920.5 lineto
stroke
newpath
50146.1 63628.4 moveto
49438.1 62920.5 lineto
stroke
newpath
49792.1 63628.4 moveto
49792.1 62920.5 lineto
stroke
newpath
49438.1 63274.4 moveto
50146.1 63274.4 lineto
stroke
newpath
51208.1 70708.4 moveto
51916.1 70000.4 lineto
stroke
newpath
51916.1 70708.4 moveto
51208.1 70000.4 lineto
stroke
newpath
51562.1 70708.4 moveto
51562.1 70000.4 lineto
stroke
newpath
51208.1 70354.4 moveto
51916.1 70354.4 lineto
stroke
newpath
51208.1 68938.4 moveto
51916.1 68230.4 lineto
stroke
newpath
51916.1 68938.4 moveto
51208.1 68230.4 lineto
stroke
newpath
51562.1 68938.4 moveto
51562.1 68230.4 lineto
stroke
newpath
51208.1 68584.4 moveto
51916.1 68584.4 lineto
stroke
newpath
51208.1 67168.4 moveto
51916.1 66460.4 lineto
stroke
newpath
51916.1 67168.4 moveto
51208.1 66460.4 lineto
stroke
newpath
51562.1 67168.4 moveto
51562.1 66460.4 lineto
stroke
newpath
51208.1 66814.4 moveto
51916.1 66814.4 lineto
stroke
newpath
51208.1 65398.4 moveto
51916.1 64690.4 lineto
stroke
newpath
51916.1 65398.4 moveto
51208.1 64690.4 lineto
stroke
newpath
51562.1 65398.4 moveto
51562.1 64690.4 lineto
stroke
newpath
51208.1 65044.4 moveto
51916.1 65044.4 lineto
stroke
newpath
51208.1 63628.4 moveto
51916.1 62920.5 lineto
stroke
newpath
51916.1 63628.4 moveto
51208.1 62920.5 lineto
stroke
newpath
51562.1 63628.4 moveto
51562.1 62920.5 lineto
stroke
newpath
51208.1 63274.4 moveto
51916.1 63274.4 lineto
stroke
newpath
56915.2 48916.7 moveto
57681.7 48150.1 lineto
stroke
newpath
57681.7 48916.7 moveto
56915.2 48150.1 lineto
stroke
newpath
57569.5 48262.4 moveto
57569.5 48804.4 lineto
57027.5 48804.4 lineto
57027.5 48262.4 lineto
57569.5 48262.4 lineto
poly0
newpath
56915.2 45780.9 moveto
57681.7 45014.4 lineto
stroke
newpath
57681.7 45780.9 moveto
56915.2 45014.4 lineto
stroke
newpath
57569.5 45126.6 moveto
57569.5 45668.6 lineto
57027.5 45668.6 lineto
57027.5 45126.6 lineto
57569.5 45126.6 lineto
poly0
newpath
61444.7 48916.7 moveto
62211.2 48150.1 lineto
stroke
newpath
62211.2 48916.7 moveto
61444.7 48150.1 lineto
stroke
newpath
62099 48262.4 moveto
62099 48804.4 lineto
61557 48804.4 lineto
61557 48262.4 lineto
62099 48262.4 lineto
poly0
newpath
61444.7 45780.9 moveto
62211.2 45014.4 lineto
stroke
newpath
62211.2 45780.9 moveto
61444.7 45014.4 lineto
stroke
newpath
62099 45126.6 moveto
62099 45668.6 lineto
61557 45668.6 lineto
61557 45126.6 lineto
62099 45126.6 lineto
poly0
118.11 setlinewidth
0 0 0 setrgbcolor
0 0 0 setrgbcolor
newpath
41646.2 35175.5 moveto
41646.2 36356.6 lineto
41927.4 36356.6 lineto
42096.1 36300.3 lineto
42208.6 36187.9 lineto
42264.8 36075.4 lineto
42321.1 35850.4 lineto
42321.1 35681.7 lineto
42264.8 35456.7 lineto
42208.6 35344.2 lineto
42096.1 35231.7 lineto
41927.4 35175.5 lineto
41646.2 35175.5 lineto
stroke
newpath
42827.3 35175.5 moveto
42827.3 35962.9 lineto
stroke
newpath
42827.3 35737.9 moveto
42883.5 35850.4 lineto
42939.7 35906.6 lineto
43052.2 35962.9 lineto
43164.7 35962.9 lineto
stroke
newpath
43558.4 35175.5 moveto
43558.4 35962.9 lineto
stroke
newpath
43558.4 36356.6 moveto
43502.2 36300.3 lineto
43558.4 36244.1 lineto
43614.7 36300.3 lineto
43558.4 36356.6 lineto
43558.4 36244.1 lineto
stroke
newpath
44289.6 35175.5 moveto
44177.1 35231.7 lineto
44120.8 35344.2 lineto
44120.8 36356.6 lineto
stroke
newpath
44908.2 35175.5 moveto
44795.8 35231.7 lineto
44739.5 35344.2 lineto
44739.5 36356.6 lineto
stroke
newpath
46258.1 35175.5 moveto
46258.1 36356.6 lineto
46651.8 35512.9 lineto
47045.5 36356.6 lineto
47045.5 35175.5 lineto
stroke
newpath
48114.1 35175.5 moveto
48114.1 35794.2 lineto
48057.9 35906.6 lineto
47945.4 35962.9 lineto
47720.4 35962.9 lineto
47607.9 35906.6 lineto
stroke
newpath
48114.1 35231.7 moveto
48001.6 35175.5 lineto
47720.4 35175.5 lineto
47607.9 35231.7 lineto
47551.7 35344.2 lineto
47551.7 35456.7 lineto
47607.9 35569.2 lineto
47720.4 35625.4 lineto
48001.6 35625.4 lineto
48114.1 35681.7 lineto
stroke
newpath
48676.5 35962.9 moveto
48676.5 34781.8 lineto
stroke
newpath
48676.5 35906.6 moveto
48789 35962.9 lineto
49014 35962.9 lineto
49126.5 35906.6 lineto
49182.7 35850.4 lineto
49239 35737.9 lineto
49239 35400.5 lineto
49182.7 35288 lineto
49126.5 35231.7 lineto
49014 35175.5 lineto
48789 35175.5 lineto
48676.5 35231.7 lineto
stroke
newpath
49745.1 35288 moveto
49801.4 35231.7 lineto
49745.1 35175.5 lineto
49688.9 35231.7 lineto
49745.1 35288 lineto
49745.1 35175.5 lineto
stroke
newpath
49745.1 35906.6 moveto
49801.4 35850.4 lineto
49745.1 35794.2 lineto
49688.9 35850.4 lineto
49745.1 35906.6 lineto
49745.1 35794.2 lineto
stroke
newpath
40239.7 33368.8 moveto
40518.5 33090.1 lineto
stroke
newpath
40518.5 33368.8 moveto
40239.7 33090.1 lineto
stroke
0 0 0 setrgbcolor
0 0 0 setrgbcolor
newpath
41871.1 33876.3 moveto
41983.6 33876.3 lineto
42096.1 33820 lineto
42152.3 33763.8 lineto
42208.6 33651.3 lineto
42264.8 33426.3 lineto
42264.8 33145.1 lineto
42208.6 32920.1 lineto
42152.3 32807.7 lineto
42096.1 32751.4 lineto
41983.6 32695.2 lineto
41871.1 32695.2 lineto
41758.6 32751.4 lineto
41702.4 32807.7 lineto
41646.2 32920.1 lineto
41589.9 33145.1 lineto
41589.9 33426.3 lineto
41646.2 33651.3 lineto
41702.4 33763.8 lineto
41758.6 33820 lineto
41871.1 33876.3 lineto
stroke
newpath
42771 32807.7 moveto
42827.3 32751.4 lineto
42771 32695.2 lineto
42714.8 32751.4 lineto
42771 32807.7 lineto
42771 32695.2 lineto
stroke
newpath
43839.6 33482.6 moveto
43839.6 32695.2 lineto
stroke
newpath
43558.4 33932.5 moveto
43277.2 33088.9 lineto
44008.4 33088.9 lineto
stroke
newpath
44683.3 33876.3 moveto
44795.8 33876.3 lineto
44908.2 33820 lineto
44964.5 33763.8 lineto
45020.7 33651.3 lineto
45077 33426.3 lineto
45077 33145.1 lineto
45020.7 32920.1 lineto
44964.5 32807.7 lineto
44908.2 32751.4 lineto
44795.8 32695.2 lineto
44683.3 32695.2 lineto
44570.8 32751.4 lineto
44514.5 32807.7 lineto
44458.3 32920.1 lineto
44402.1 33145.1 lineto
44402.1 33426.3 lineto
44458.3 33651.3 lineto
44514.5 33763.8 lineto
44570.8 33820 lineto
44683.3 33876.3 lineto
stroke
newpath
45583.2 32695.2 moveto
45583.2 33482.6 lineto
stroke
newpath
45583.2 33370.1 moveto
45639.4 33426.3 lineto
45751.9 33482.6 lineto
45920.6 33482.6 lineto
46033.1 33426.3 lineto
46089.3 33313.8 lineto
46089.3 32695.2 lineto
stroke
newpath
46089.3 33313.8 moveto
46145.6 33426.3 lineto
46258.1 33482.6 lineto
46426.8 33482.6 lineto
46539.3 33426.3 lineto
46595.5 33313.8 lineto
46595.5 32695.2 lineto
stroke
newpath
47158 32695.2 moveto
47158 33482.6 lineto
stroke
newpath
47158 33370.1 moveto
47214.2 33426.3 lineto
47326.7 33482.6 lineto
47495.4 33482.6 lineto
47607.9 33426.3 lineto
47664.1 33313.8 lineto
47664.1 32695.2 lineto
stroke
newpath
47664.1 33313.8 moveto
47720.4 33426.3 lineto
47832.9 33482.6 lineto
48001.6 33482.6 lineto
48114.1 33426.3 lineto
48170.3 33313.8 lineto
48170.3 32695.2 lineto
stroke
newpath
50476.3 33932.5 moveto
49463.9 32414 lineto
stroke
newpath
51994.9 33876.3 moveto
52107.3 33876.3 lineto
52219.8 33820 lineto
52276.1 33763.8 lineto
52332.3 33651.3 lineto
52388.6 33426.3 lineto
52388.6 33145.1 lineto
52332.3 32920.1 lineto
52276.1 32807.7 lineto
52219.8 32751.4 lineto
52107.3 32695.2 lineto
51994.9 32695.2 lineto
51882.4 32751.4 lineto
51826.1 32807.7 lineto
51769.9 32920.1 lineto
51713.6 33145.1 lineto
51713.6 33426.3 lineto
51769.9 33651.3 lineto
51826.1 33763.8 lineto
51882.4 33820 lineto
51994.9 33876.3 lineto
stroke
newpath
52894.7 32807.7 moveto
52951 32751.4 lineto
52894.7 32695.2 lineto
52838.5 32751.4 lineto
52894.7 32807.7 lineto
52894.7 32695.2 lineto
stroke
newpath
53682.1 33876.3 moveto
53794.6 33876.3 lineto
53907.1 33820 lineto
53963.4 33763.8 lineto
54019.6 33651.3 lineto
54075.8 33426.3 lineto
54075.8 33145.1 lineto
54019.6 32920.1 lineto
53963.4 32807.7 lineto
53907.1 32751.4 lineto
53794.6 32695.2 lineto
53682.1 32695.2 lineto
53569.7 32751.4 lineto
53513.4 32807.7 lineto
53457.2 32920.1 lineto
53400.9 33145.1 lineto
53400.9 33426.3 lineto
53457.2 33651.3 lineto
53513.4 33763.8 lineto
53569.7 33820 lineto
53682.1 33876.3 lineto
stroke
newpath
55200.7 32695.2 moveto
54525.8 32695.2 lineto
stroke
newpath
54863.2 32695.2 moveto
54863.2 33876.3 lineto
54750.8 33707.5 lineto
54638.3 33595.1 lineto
54525.8 33538.8 lineto
stroke
newpath
56213.1 33876.3 moveto
55988.1 33876.3 lineto
55875.6 33820 lineto
55819.4 33763.8 lineto
55706.9 33595.1 lineto
55650.7 33370.1 lineto
55650.7 32920.1 lineto
55706.9 32807.7 lineto
55763.1 32751.4 lineto
55875.6 32695.2 lineto
56100.6 32695.2 lineto
56213.1 32751.4 lineto
56269.3 32807.7 lineto
56325.6 32920.1 lineto
56325.6 33201.4 lineto
56269.3 33313.8 lineto
56213.1 33370.1 lineto
56100.6 33426.3 lineto
55875.6 33426.3 lineto
55763.1 33370.1 lineto
55706.9 33313.8 lineto
55650.7 33201.4 lineto
stroke
newpath
56775.5 33876.3 moveto
56775.5 33651.3 lineto
stroke
newpath
57225.5 33876.3 moveto
57225.5 33651.3 lineto
stroke
newpath
58969 32245.2 moveto
58912.7 32301.5 lineto
58800.3 32470.2 lineto
58744 32582.7 lineto
58687.8 32751.4 lineto
58631.5 33032.6 lineto
58631.5 33257.6 lineto
58687.8 33538.8 lineto
58744 33707.5 lineto
58800.3 33820 lineto
58912.7 33988.8 lineto
58969 34045 lineto
stroke
newpath
60037.6 32695.2 moveto
59362.7 32695.2 lineto
stroke
newpath
59700.1 32695.2 moveto
59700.1 33876.3 lineto
59587.7 33707.5 lineto
59475.2 33595.1 lineto
59362.7 33538.8 lineto
stroke
newpath
60768.8 33876.3 moveto
60881.2 33876.3 lineto
60993.7 33820 lineto
61050 33763.8 lineto
61106.2 33651.3 lineto
61162.5 33426.3 lineto
61162.5 33145.1 lineto
61106.2 32920.1 lineto
61050 32807.7 lineto
60993.7 32751.4 lineto
60881.2 32695.2 lineto
60768.8 32695.2 lineto
60656.3 32751.4 lineto
60600 32807.7 lineto
60543.8 32920.1 lineto
60487.5 33145.1 lineto
60487.5 33426.3 lineto
60543.8 33651.3 lineto
60600 33763.8 lineto
60656.3 33820 lineto
60768.8 33876.3 lineto
stroke
newpath
62568.5 32695.2 moveto
62568.5 33876.3 lineto
stroke
newpath
63074.7 32695.2 moveto
63074.7 33313.8 lineto
63018.5 33426.3 lineto
62906 33482.6 lineto
62737.3 33482.6 lineto
62624.8 33426.3 lineto
62568.5 33370.1 lineto
stroke
newpath
63805.9 32695.2 moveto
63693.4 32751.4 lineto
63637.2 32807.7 lineto
63580.9 32920.1 lineto
63580.9 33257.6 lineto
63637.2 33370.1 lineto
63693.4 33426.3 lineto
63805.9 33482.6 lineto
63974.6 33482.6 lineto
64087.1 33426.3 lineto
64143.3 33370.1 lineto
64199.6 33257.6 lineto
64199.6 32920.1 lineto
64143.3 32807.7 lineto
64087.1 32751.4 lineto
63974.6 32695.2 lineto
63805.9 32695.2 lineto
stroke
newpath
64874.5 32695.2 moveto
64762 32751.4 lineto
64705.8 32863.9 lineto
64705.8 33876.3 lineto
stroke
newpath
65774.4 32751.4 moveto
65661.9 32695.2 lineto
65436.9 32695.2 lineto
65324.4 32751.4 lineto
65268.2 32863.9 lineto
65268.2 33313.8 lineto
65324.4 33426.3 lineto
65436.9 33482.6 lineto
65661.9 33482.6 lineto
65774.4 33426.3 lineto
65830.6 33313.8 lineto
65830.6 33201.4 lineto
65268.2 33088.9 lineto
stroke
newpath
66280.6 32751.4 moveto
66393.1 32695.2 lineto
66618 32695.2 lineto
66730.5 32751.4 lineto
66786.8 32863.9 lineto
66786.8 32920.1 lineto
66730.5 33032.6 lineto
66618 33088.9 lineto
66449.3 33088.9 lineto
66336.8 33145.1 lineto
66280.6 33257.6 lineto
66280.6 33313.8 lineto
66336.8 33426.3 lineto
66449.3 33482.6 lineto
66618 33482.6 lineto
66730.5 33426.3 lineto
stroke
newpath
67180.5 32245.2 moveto
67236.7 32301.5 lineto
67349.2 32470.2 lineto
67405.4 32582.7 lineto
67461.7 32751.4 lineto
67517.9 33032.6 lineto
67517.9 33257.6 lineto
67461.7 33538.8 lineto
67405.4 33707.5 lineto
67349.2 33820 lineto
67236.7 33988.8 lineto
67180.5 34045 lineto
stroke
40275.1 31670.4 243.373 cir0
0 0 0 setrgbcolor
0 0 0 setrgbcolor
newpath
41871.1 32317.2 moveto
41983.6 32317.2 lineto
42096.1 32261 lineto
42152.3 32204.7 lineto
42208.6 32092.2 lineto
42264.8 31867.3 lineto
42264.8 31586.1 lineto
42208.6 31361.1 lineto
42152.3 31248.6 lineto
42096.1 31192.4 lineto
41983.6 31136.1 lineto
41871.1 31136.1 lineto
41758.6 31192.4 lineto
41702.4 31248.6 lineto
41646.2 31361.1 lineto
41589.9 31586.1 lineto
41589.9 31867.3 lineto
41646.2 32092.2 lineto
41702.4 32204.7 lineto
41758.6 32261 lineto
41871.1 32317.2 lineto
stroke
newpath
42771 31248.6 moveto
42827.3 31192.4 lineto
42771 31136.1 lineto
42714.8 31192.4 lineto
42771 31248.6 lineto
42771 31136.1 lineto
stroke
newpath
43221 32317.2 moveto
44008.4 32317.2 lineto
43502.2 31136.1 lineto
stroke
newpath
44683.3 32317.2 moveto
44795.8 32317.2 lineto
44908.2 32261 lineto
44964.5 32204.7 lineto
45020.7 32092.2 lineto
45077 31867.3 lineto
45077 31586.1 lineto
45020.7 31361.1 lineto
44964.5 31248.6 lineto
44908.2 31192.4 lineto
44795.8 31136.1 lineto
44683.3 31136.1 lineto
44570.8 31192.4 lineto
44514.5 31248.6 lineto
44458.3 31361.1 lineto
44402.1 31586.1 lineto
44402.1 31867.3 lineto
44458.3 32092.2 lineto
44514.5 32204.7 lineto
44570.8 32261 lineto
44683.3 32317.2 lineto
stroke
newpath
45583.2 31136.1 moveto
45583.2 31923.5 lineto
stroke
newpath
45583.2 31811 moveto
45639.4 31867.3 lineto
45751.9 31923.5 lineto
45920.6 31923.5 lineto
46033.1 31867.3 lineto
46089.3 31754.8 lineto
46089.3 31136.1 lineto
stroke
newpath
46089.3 31754.8 moveto
46145.6 31867.3 lineto
46258.1 31923.5 lineto
46426.8 31923.5 lineto
46539.3 31867.3 lineto
46595.5 31754.8 lineto
46595.5 31136.1 lineto
stroke
newpath
47158 31136.1 moveto
47158 31923.5 lineto
stroke
newpath
47158 31811 moveto
47214.2 31867.3 lineto
47326.7 31923.5 lineto
47495.4 31923.5 lineto
47607.9 31867.3 lineto
47664.1 31754.8 lineto
47664.1 31136.1 lineto
stroke
newpath
47664.1 31754.8 moveto
47720.4 31867.3 lineto
47832.9 31923.5 lineto
48001.6 31923.5 lineto
48114.1 31867.3 lineto
48170.3 31754.8 lineto
48170.3 31136.1 lineto
stroke
newpath
50476.3 32373.5 moveto
49463.9 30854.9 lineto
stroke
newpath
51994.9 32317.2 moveto
52107.3 32317.2 lineto
52219.8 32261 lineto
52276.1 32204.7 lineto
52332.3 32092.2 lineto
52388.6 31867.3 lineto
52388.6 31586.1 lineto
52332.3 31361.1 lineto
52276.1 31248.6 lineto
52219.8 31192.4 lineto
52107.3 31136.1 lineto
51994.9 31136.1 lineto
51882.4 31192.4 lineto
51826.1 31248.6 lineto
51769.9 31361.1 lineto
51713.6 31586.1 lineto
51713.6 31867.3 lineto
51769.9 32092.2 lineto
51826.1 32204.7 lineto
51882.4 32261 lineto
51994.9 32317.2 lineto
stroke
newpath
52894.7 31248.6 moveto
52951 31192.4 lineto
52894.7 31136.1 lineto
52838.5 31192.4 lineto
52894.7 31248.6 lineto
52894.7 31136.1 lineto
stroke
newpath
53682.1 32317.2 moveto
53794.6 32317.2 lineto
53907.1 32261 lineto
53963.4 32204.7 lineto
54019.6 32092.2 lineto
54075.8 31867.3 lineto
54075.8 31586.1 lineto
54019.6 31361.1 lineto
53963.4 31248.6 lineto
53907.1 31192.4 lineto
53794.6 31136.1 lineto
53682.1 31136.1 lineto
53569.7 31192.4 lineto
53513.4 31248.6 lineto
53457.2 31361.1 lineto
53400.9 31586.1 lineto
53400.9 31867.3 lineto
53457.2 32092.2 lineto
53513.4 32204.7 lineto
53569.7 32261 lineto
53682.1 32317.2 lineto
stroke
newpath
54525.8 32204.7 moveto
54582 32261 lineto
54694.5 32317.2 lineto
54975.7 32317.2 lineto
55088.2 32261 lineto
55144.5 32204.7 lineto
55200.7 32092.2 lineto
55200.7 31979.8 lineto
55144.5 31811 lineto
54469.5 31136.1 lineto
55200.7 31136.1 lineto
stroke
newpath
55875.6 31811 moveto
55763.1 31867.3 lineto
55706.9 31923.5 lineto
55650.7 32036 lineto
55650.7 32092.2 lineto
55706.9 32204.7 lineto
55763.1 32261 lineto
55875.6 32317.2 lineto
56100.6 32317.2 lineto
56213.1 32261 lineto
56269.3 32204.7 lineto
56325.6 32092.2 lineto
56325.6 32036 lineto
56269.3 31923.5 lineto
56213.1 31867.3 lineto
56100.6 31811 lineto
55875.6 31811 lineto
55763.1 31754.8 lineto
55706.9 31698.5 lineto
55650.7 31586.1 lineto
55650.7 31361.1 lineto
55706.9 31248.6 lineto
55763.1 31192.4 lineto
55875.6 31136.1 lineto
56100.6 31136.1 lineto
56213.1 31192.4 lineto
56269.3 31248.6 lineto
56325.6 31361.1 lineto
56325.6 31586.1 lineto
56269.3 31698.5 lineto
56213.1 31754.8 lineto
56100.6 31811 lineto
stroke
newpath
56775.5 32317.2 moveto
56775.5 32092.2 lineto
stroke
newpath
57225.5 32317.2 moveto
57225.5 32092.2 lineto
stroke
newpath
58969 30686.2 moveto
58912.7 30742.4 lineto
58800.3 30911.1 lineto
58744 31023.6 lineto
58687.8 31192.4 lineto
58631.5 31473.6 lineto
58631.5 31698.5 lineto
58687.8 31979.8 lineto
58744 32148.5 lineto
58800.3 32261 lineto
58912.7 32429.7 lineto
58969 32485.9 lineto
stroke
newpath
59587.7 31811 moveto
59475.2 31867.3 lineto
59418.9 31923.5 lineto
59362.7 32036 lineto
59362.7 32092.2 lineto
59418.9 32204.7 lineto
59475.2 32261 lineto
59587.7 32317.2 lineto
59812.6 32317.2 lineto
59925.1 32261 lineto
59981.4 32204.7 lineto
60037.6 32092.2 lineto
60037.6 32036 lineto
59981.4 31923.5 lineto
59925.1 31867.3 lineto
59812.6 31811 lineto
59587.7 31811 lineto
59475.2 31754.8 lineto
59418.9 31698.5 lineto
59362.7 31586.1 lineto
59362.7 31361.1 lineto
59418.9 31248.6 lineto
59475.2 31192.4 lineto
59587.7 31136.1 lineto
59812.6 31136.1 lineto
59925.1 31192.4 lineto
59981.4 31248.6 lineto
60037.6 31361.1 lineto
60037.6 31586.1 lineto
59981.4 31698.5 lineto
59925.1 31754.8 lineto
59812.6 31811 lineto
stroke
newpath
61443.7 31136.1 moveto
61443.7 32317.2 lineto
stroke
newpath
61949.9 31136.1 moveto
61949.9 31754.8 lineto
61893.6 31867.3 lineto
61781.1 31923.5 lineto
61612.4 31923.5 lineto
61499.9 31867.3 lineto
61443.7 31811 lineto
stroke
newpath
62681 31136.1 moveto
62568.5 31192.4 lineto
62512.3 31248.6 lineto
62456.1 31361.1 lineto
62456.1 31698.5 lineto
62512.3 31811 lineto
62568.5 31867.3 lineto
62681 31923.5 lineto
62849.8 31923.5 lineto
62962.2 31867.3 lineto
63018.5 31811 lineto
63074.7 31698.5 lineto
63074.7 31361.1 lineto
63018.5 31248.6 lineto
62962.2 31192.4 lineto
62849.8 31136.1 lineto
62681 31136.1 lineto
stroke
newpath
63749.6 31136.1 moveto
63637.2 31192.4 lineto
63580.9 31304.8 lineto
63580.9 32317.2 lineto
stroke
newpath
64649.5 31192.4 moveto
64537 31136.1 lineto
64312.1 31136.1 lineto
64199.6 31192.4 lineto
64143.3 31304.8 lineto
64143.3 31754.8 lineto
64199.6 31867.3 lineto
64312.1 31923.5 lineto
64537 31923.5 lineto
64649.5 31867.3 lineto
64705.8 31754.8 lineto
64705.8 31642.3 lineto
64143.3 31529.8 lineto
stroke
newpath
65155.7 31192.4 moveto
65268.2 31136.1 lineto
65493.2 31136.1 lineto
65605.7 31192.4 lineto
65661.9 31304.8 lineto
65661.9 31361.1 lineto
65605.7 31473.6 lineto
65493.2 31529.8 lineto
65324.4 31529.8 lineto
65212 31586.1 lineto
65155.7 31698.5 lineto
65155.7 31754.8 lineto
65212 31867.3 lineto
65324.4 31923.5 lineto
65493.2 31923.5 lineto
65605.7 31867.3 lineto
stroke
newpath
66055.6 30686.2 moveto
66111.8 30742.4 lineto
66224.3 30911.1 lineto
66280.6 31023.6 lineto
66336.8 31192.4 lineto
66393.1 31473.6 lineto
66393.1 31698.5 lineto
66336.8 31979.8 lineto
66280.6 32148.5 lineto
66224.3 32261 lineto
66111.8 32429.7 lineto
66055.6 32485.9 lineto
stroke
newpath
40253 30376.9 moveto
40253 29845.9 lineto
stroke
newpath
39987.5 30111.4 moveto
40518.5 30111.4 lineto
stroke
0 0 0 setrgbcolor
0 0 0 setrgbcolor
newpath
41871.1 30758.2 moveto
41983.6 30758.2 lineto
42096.1 30701.9 lineto
42152.3 30645.7 lineto
42208.6 30533.2 lineto
42264.8 30308.2 lineto
42264.8 30027 lineto
42208.6 29802 lineto
42152.3 29689.5 lineto
42096.1 29633.3 lineto
41983.6 29577.1 lineto
41871.1 29577.1 lineto
41758.6 29633.3 lineto
41702.4 29689.5 lineto
41646.2 29802 lineto
41589.9 30027 lineto
41589.9 30308.2 lineto
41646.2 30533.2 lineto
41702.4 30645.7 lineto
41758.6 30701.9 lineto
41871.1 30758.2 lineto
stroke
newpath
42771 29689.5 moveto
42827.3 29633.3 lineto
42771 29577.1 lineto
42714.8 29633.3 lineto
42771 29689.5 lineto
42771 29577.1 lineto
stroke
newpath
43221 30758.2 moveto
44008.4 30758.2 lineto
43502.2 29577.1 lineto
stroke
newpath
44964.5 30758.2 moveto
44739.5 30758.2 lineto
44627 30701.9 lineto
44570.8 30645.7 lineto
44458.3 30476.9 lineto
44402.1 30252 lineto
44402.1 29802 lineto
44458.3 29689.5 lineto
44514.5 29633.3 lineto
44627 29577.1 lineto
44852 29577.1 lineto
44964.5 29633.3 lineto
45020.7 29689.5 lineto
45077 29802 lineto
45077 30083.2 lineto
45020.7 30195.7 lineto
44964.5 30252 lineto
44852 30308.2 lineto
44627 30308.2 lineto
44514.5 30252 lineto
44458.3 30195.7 lineto
44402.1 30083.2 lineto
stroke
newpath
45583.2 29577.1 moveto
45583.2 30364.5 lineto
stroke
newpath
45583.2 30252 moveto
45639.4 30308.2 lineto
45751.9 30364.5 lineto
45920.6 30364.5 lineto
46033.1 30308.2 lineto
46089.3 30195.7 lineto
46089.3 29577.1 lineto
stroke
newpath
46089.3 30195.7 moveto
46145.6 30308.2 lineto
46258.1 30364.5 lineto
46426.8 30364.5 lineto
46539.3 30308.2 lineto
46595.5 30195.7 lineto
46595.5 29577.1 lineto
stroke
newpath
47158 29577.1 moveto
47158 30364.5 lineto
stroke
newpath
47158 30252 moveto
47214.2 30308.2 lineto
47326.7 30364.5 lineto
47495.4 30364.5 lineto
47607.9 30308.2 lineto
47664.1 30195.7 lineto
47664.1 29577.1 lineto
stroke
newpath
47664.1 30195.7 moveto
47720.4 30308.2 lineto
47832.9 30364.5 lineto
48001.6 30364.5 lineto
48114.1 30308.2 lineto
48170.3 30195.7 lineto
48170.3 29577.1 lineto
stroke
newpath
50476.3 30814.4 moveto
49463.9 29295.8 lineto
stroke
newpath
51994.9 30758.2 moveto
52107.3 30758.2 lineto
52219.8 30701.9 lineto
52276.1 30645.7 lineto
52332.3 30533.2 lineto
52388.6 30308.2 lineto
52388.6 30027 lineto
52332.3 29802 lineto
52276.1 29689.5 lineto
52219.8 29633.3 lineto
52107.3 29577.1 lineto
51994.9 29577.1 lineto
51882.4 29633.3 lineto
51826.1 29689.5 lineto
51769.9 29802 lineto
51713.6 30027 lineto
51713.6 30308.2 lineto
51769.9 30533.2 lineto
51826.1 30645.7 lineto
51882.4 30701.9 lineto
51994.9 30758.2 lineto
stroke
newpath
52894.7 29689.5 moveto
52951 29633.3 lineto
52894.7 29577.1 lineto
52838.5 29633.3 lineto
52894.7 29689.5 lineto
52894.7 29577.1 lineto
stroke
newpath
53682.1 30758.2 moveto
53794.6 30758.2 lineto
53907.1 30701.9 lineto
53963.4 30645.7 lineto
54019.6 30533.2 lineto
54075.8 30308.2 lineto
54075.8 30027 lineto
54019.6 29802 lineto
53963.4 29689.5 lineto
53907.1 29633.3 lineto
53794.6 29577.1 lineto
53682.1 29577.1 lineto
53569.7 29633.3 lineto
53513.4 29689.5 lineto
53457.2 29802 lineto
53400.9 30027 lineto
53400.9 30308.2 lineto
53457.2 30533.2 lineto
53513.4 30645.7 lineto
53569.7 30701.9 lineto
53682.1 30758.2 lineto
stroke
newpath
54469.5 30758.2 moveto
55200.7 30758.2 lineto
54807 30308.2 lineto
54975.7 30308.2 lineto
55088.2 30252 lineto
55144.5 30195.7 lineto
55200.7 30083.2 lineto
55200.7 29802 lineto
55144.5 29689.5 lineto
55088.2 29633.3 lineto
54975.7 29577.1 lineto
54638.3 29577.1 lineto
54525.8 29633.3 lineto
54469.5 29689.5 lineto
stroke
newpath
55931.9 30758.2 moveto
56044.4 30758.2 lineto
56156.8 30701.9 lineto
56213.1 30645.7 lineto
56269.3 30533.2 lineto
56325.6 30308.2 lineto
56325.6 30027 lineto
56269.3 29802 lineto
56213.1 29689.5 lineto
56156.8 29633.3 lineto
56044.4 29577.1 lineto
55931.9 29577.1 lineto
55819.4 29633.3 lineto
55763.1 29689.5 lineto
55706.9 29802 lineto
55650.7 30027 lineto
55650.7 30308.2 lineto
55706.9 30533.2 lineto
55763.1 30645.7 lineto
55819.4 30701.9 lineto
55931.9 30758.2 lineto
stroke
newpath
56775.5 30758.2 moveto
56775.5 30533.2 lineto
stroke
newpath
57225.5 30758.2 moveto
57225.5 30533.2 lineto
stroke
newpath
58969 29127.1 moveto
58912.7 29183.4 lineto
58800.3 29352.1 lineto
58744 29464.6 lineto
58687.8 29633.3 lineto
58631.5 29914.5 lineto
58631.5 30139.5 lineto
58687.8 30420.7 lineto
58744 30589.4 lineto
58800.3 30701.9 lineto
58912.7 30870.7 lineto
58969 30926.9 lineto
stroke
newpath
59587.7 30252 moveto
59475.2 30308.2 lineto
59418.9 30364.5 lineto
59362.7 30476.9 lineto
59362.7 30533.2 lineto
59418.9 30645.7 lineto
59475.2 30701.9 lineto
59587.7 30758.2 lineto
59812.6 30758.2 lineto
59925.1 30701.9 lineto
59981.4 30645.7 lineto
60037.6 30533.2 lineto
60037.6 30476.9 lineto
59981.4 30364.5 lineto
59925.1 30308.2 lineto
59812.6 30252 lineto
59587.7 30252 lineto
59475.2 30195.7 lineto
59418.9 30139.5 lineto
59362.7 30027 lineto
59362.7 29802 lineto
59418.9 29689.5 lineto
59475.2 29633.3 lineto
59587.7 29577.1 lineto
59812.6 29577.1 lineto
59925.1 29633.3 lineto
59981.4 29689.5 lineto
60037.6 29802 lineto
60037.6 30027 lineto
59981.4 30139.5 lineto
59925.1 30195.7 lineto
59812.6 30252 lineto
stroke
newpath
61443.7 29577.1 moveto
61443.7 30758.2 lineto
stroke
newpath
61949.9 29577.1 moveto
61949.9 30195.7 lineto
61893.6 30308.2 lineto
61781.1 30364.5 lineto
61612.4 30364.5 lineto
61499.9 30308.2 lineto
61443.7 30252 lineto
stroke
newpath
62681 29577.1 moveto
62568.5 29633.3 lineto
62512.3 29689.5 lineto
62456.1 29802 lineto
62456.1 30139.5 lineto
62512.3 30252 lineto
62568.5 30308.2 lineto
62681 30364.5 lineto
62849.8 30364.5 lineto
62962.2 30308.2 lineto
63018.5 30252 lineto
63074.7 30139.5 lineto
63074.7 29802 lineto
63018.5 29689.5 lineto
62962.2 29633.3 lineto
62849.8 29577.1 lineto
62681 29577.1 lineto
stroke
newpath
63749.6 29577.1 moveto
63637.2 29633.3 lineto
63580.9 29745.8 lineto
63580.9 30758.2 lineto
stroke
newpath
64649.5 29633.3 moveto
64537 29577.1 lineto
64312.1 29577.1 lineto
64199.6 29633.3 lineto
64143.3 29745.8 lineto
64143.3 30195.7 lineto
64199.6 30308.2 lineto
64312.1 30364.5 lineto
64537 30364.5 lineto
64649.5 30308.2 lineto
64705.8 30195.7 lineto
64705.8 30083.2 lineto
64143.3 29970.8 lineto
stroke
newpath
65155.7 29633.3 moveto
65268.2 29577.1 lineto
65493.2 29577.1 lineto
65605.7 29633.3 lineto
65661.9 29745.8 lineto
65661.9 29802 lineto
65605.7 29914.5 lineto
65493.2 29970.8 lineto
65324.4 29970.8 lineto
65212 30027 lineto
65155.7 30139.5 lineto
65155.7 30195.7 lineto
65212 30308.2 lineto
65324.4 30364.5 lineto
65493.2 30364.5 lineto
65605.7 30308.2 lineto
stroke
newpath
66055.6 29127.1 moveto
66111.8 29183.4 lineto
66224.3 29352.1 lineto
66280.6 29464.6 lineto
66336.8 29633.3 lineto
66393.1 29914.5 lineto
66393.1 30139.5 lineto
66336.8 30420.7 lineto
66280.6 30589.4 lineto
66224.3 30701.9 lineto
66111.8 30870.7 lineto
66055.6 30926.9 lineto
stroke
newpath
40436.8 28355.2 moveto
40436.8 28749.4 lineto
40042.6 28749.4 lineto
40042.6 28355.2 lineto
40436.8 28355.2 lineto
poly0
0 0 0 setrgbcolor
0 0 0 setrgbcolor
newpath
41871.1 29199.1 moveto
41983.6 29199.1 lineto
42096.1 29142.9 lineto
42152.3 29086.6 lineto
42208.6 28974.1 lineto
42264.8 28749.2 lineto
42264.8 28468 lineto
42208.6 28243 lineto
42152.3 28130.5 lineto
42096.1 28074.2 lineto
41983.6 28018 lineto
41871.1 28018 lineto
41758.6 28074.2 lineto
41702.4 28130.5 lineto
41646.2 28243 lineto
41589.9 28468 lineto
41589.9 28749.2 lineto
41646.2 28974.1 lineto
41702.4 29086.6 lineto
41758.6 29142.9 lineto
41871.1 29199.1 lineto
stroke
newpath
42771 28130.5 moveto
42827.3 28074.2 lineto
42771 28018 lineto
42714.8 28074.2 lineto
42771 28130.5 lineto
42771 28018 lineto
stroke
newpath
43502.2 28692.9 moveto
43389.7 28749.2 lineto
43333.4 28805.4 lineto
43277.2 28917.9 lineto
43277.2 28974.1 lineto
43333.4 29086.6 lineto
43389.7 29142.9 lineto
43502.2 29199.1 lineto
43727.1 29199.1 lineto
43839.6 29142.9 lineto
43895.9 29086.6 lineto
43952.1 28974.1 lineto
43952.1 28917.9 lineto
43895.9 28805.4 lineto
43839.6 28749.2 lineto
43727.1 28692.9 lineto
43502.2 28692.9 lineto
43389.7 28636.7 lineto
43333.4 28580.4 lineto
43277.2 28468 lineto
43277.2 28243 lineto
43333.4 28130.5 lineto
43389.7 28074.2 lineto
43502.2 28018 lineto
43727.1 28018 lineto
43839.6 28074.2 lineto
43895.9 28130.5 lineto
43952.1 28243 lineto
43952.1 28468 lineto
43895.9 28580.4 lineto
43839.6 28636.7 lineto
43727.1 28692.9 lineto
stroke
newpath
44683.3 29199.1 moveto
44795.8 29199.1 lineto
44908.2 29142.9 lineto
44964.5 29086.6 lineto
45020.7 28974.1 lineto
45077 28749.2 lineto
45077 28468 lineto
45020.7 28243 lineto
44964.5 28130.5 lineto
44908.2 28074.2 lineto
44795.8 28018 lineto
44683.3 28018 lineto
44570.8 28074.2 lineto
44514.5 28130.5 lineto
44458.3 28243 lineto
44402.1 28468 lineto
44402.1 28749.2 lineto
44458.3 28974.1 lineto
44514.5 29086.6 lineto
44570.8 29142.9 lineto
44683.3 29199.1 lineto
stroke
newpath
45583.2 28018 moveto
45583.2 28805.4 lineto
stroke
newpath
45583.2 28692.9 moveto
45639.4 28749.2 lineto
45751.9 28805.4 lineto
45920.6 28805.4 lineto
46033.1 28749.2 lineto
46089.3 28636.7 lineto
46089.3 28018 lineto
stroke
newpath
46089.3 28636.7 moveto
46145.6 28749.2 lineto
46258.1 28805.4 lineto
46426.8 28805.4 lineto
46539.3 28749.2 lineto
46595.5 28636.7 lineto
46595.5 28018 lineto
stroke
newpath
47158 28018 moveto
47158 28805.4 lineto
stroke
newpath
47158 28692.9 moveto
47214.2 28749.2 lineto
47326.7 28805.4 lineto
47495.4 28805.4 lineto
47607.9 28749.2 lineto
47664.1 28636.7 lineto
47664.1 28018 lineto
stroke
newpath
47664.1 28636.7 moveto
47720.4 28749.2 lineto
47832.9 28805.4 lineto
48001.6 28805.4 lineto
48114.1 28749.2 lineto
48170.3 28636.7 lineto
48170.3 28018 lineto
stroke
newpath
50476.3 29255.4 moveto
49463.9 27736.8 lineto
stroke
newpath
51994.9 29199.1 moveto
52107.3 29199.1 lineto
52219.8 29142.9 lineto
52276.1 29086.6 lineto
52332.3 28974.1 lineto
52388.6 28749.2 lineto
52388.6 28468 lineto
52332.3 28243 lineto
52276.1 28130.5 lineto
52219.8 28074.2 lineto
52107.3 28018 lineto
51994.9 28018 lineto
51882.4 28074.2 lineto
51826.1 28130.5 lineto
51769.9 28243 lineto
51713.6 28468 lineto
51713.6 28749.2 lineto
51769.9 28974.1 lineto
51826.1 29086.6 lineto
51882.4 29142.9 lineto
51994.9 29199.1 lineto
stroke
newpath
52894.7 28130.5 moveto
52951 28074.2 lineto
52894.7 28018 lineto
52838.5 28074.2 lineto
52894.7 28130.5 lineto
52894.7 28018 lineto
stroke
newpath
53682.1 29199.1 moveto
53794.6 29199.1 lineto
53907.1 29142.9 lineto
53963.4 29086.6 lineto
54019.6 28974.1 lineto
54075.8 28749.2 lineto
54075.8 28468 lineto
54019.6 28243 lineto
53963.4 28130.5 lineto
53907.1 28074.2 lineto
53794.6 28018 lineto
53682.1 28018 lineto
53569.7 28074.2 lineto
53513.4 28130.5 lineto
53457.2 28243 lineto
53400.9 28468 lineto
53400.9 28749.2 lineto
53457.2 28974.1 lineto
53513.4 29086.6 lineto
53569.7 29142.9 lineto
53682.1 29199.1 lineto
stroke
newpath
54469.5 29199.1 moveto
55200.7 29199.1 lineto
54807 28749.2 lineto
54975.7 28749.2 lineto
55088.2 28692.9 lineto
55144.5 28636.7 lineto
55200.7 28524.2 lineto
55200.7 28243 lineto
55144.5 28130.5 lineto
55088.2 28074.2 lineto
54975.7 28018 lineto
54638.3 28018 lineto
54525.8 28074.2 lineto
54469.5 28130.5 lineto
stroke
newpath
56325.6 28018 moveto
55650.7 28018 lineto
stroke
newpath
55988.1 28018 moveto
55988.1 29199.1 lineto
55875.6 29030.4 lineto
55763.1 28917.9 lineto
55650.7 28861.7 lineto
stroke
newpath
56775.5 29199.1 moveto
56775.5 28974.1 lineto
stroke
newpath
57225.5 29199.1 moveto
57225.5 28974.1 lineto
stroke
newpath
58969 27568.1 moveto
58912.7 27624.3 lineto
58800.3 27793 lineto
58744 27905.5 lineto
58687.8 28074.2 lineto
58631.5 28355.5 lineto
58631.5 28580.4 lineto
58687.8 28861.7 lineto
58744 29030.4 lineto
58800.3 29142.9 lineto
58912.7 29311.6 lineto
58969 29367.8 lineto
stroke
newpath
59362.7 29086.6 moveto
59418.9 29142.9 lineto
59531.4 29199.1 lineto
59812.6 29199.1 lineto
59925.1 29142.9 lineto
59981.4 29086.6 lineto
60037.6 28974.1 lineto
60037.6 28861.7 lineto
59981.4 28692.9 lineto
59306.4 28018 lineto
60037.6 28018 lineto
stroke
newpath
60768.8 29199.1 moveto
60881.2 29199.1 lineto
60993.7 29142.9 lineto
61050 29086.6 lineto
61106.2 28974.1 lineto
61162.5 28749.2 lineto
61162.5 28468 lineto
61106.2 28243 lineto
61050 28130.5 lineto
60993.7 28074.2 lineto
60881.2 28018 lineto
60768.8 28018 lineto
60656.3 28074.2 lineto
60600 28130.5 lineto
60543.8 28243 lineto
60487.5 28468 lineto
60487.5 28749.2 lineto
60543.8 28974.1 lineto
60600 29086.6 lineto
60656.3 29142.9 lineto
60768.8 29199.1 lineto
stroke
newpath
62568.5 28018 moveto
62568.5 29199.1 lineto
stroke
newpath
63074.7 28018 moveto
63074.7 28636.7 lineto
63018.5 28749.2 lineto
62906 28805.4 lineto
62737.3 28805.4 lineto
62624.8 28749.2 lineto
62568.5 28692.9 lineto
stroke
newpath
63805.9 28018 moveto
63693.4 28074.2 lineto
63637.2 28130.5 lineto
63580.9 28243 lineto
63580.9 28580.4 lineto
63637.2 28692.9 lineto
63693.4 28749.2 lineto
63805.9 28805.4 lineto
63974.6 28805.4 lineto
64087.1 28749.2 lineto
64143.3 28692.9 lineto
64199.6 28580.4 lineto
64199.6 28243 lineto
64143.3 28130.5 lineto
64087.1 28074.2 lineto
63974.6 28018 lineto
63805.9 28018 lineto
stroke
newpath
64874.5 28018 moveto
64762 28074.2 lineto
64705.8 28186.7 lineto
64705.8 29199.1 lineto
stroke
newpath
65774.4 28074.2 moveto
65661.9 28018 lineto
65436.9 28018 lineto
65324.4 28074.2 lineto
65268.2 28186.7 lineto
65268.2 28636.7 lineto
65324.4 28749.2 lineto
65436.9 28805.4 lineto
65661.9 28805.4 lineto
65774.4 28749.2 lineto
65830.6 28636.7 lineto
65830.6 28524.2 lineto
65268.2 28411.7 lineto
stroke
newpath
66280.6 28074.2 moveto
66393.1 28018 lineto
66618 28018 lineto
66730.5 28074.2 lineto
66786.8 28186.7 lineto
66786.8 28243 lineto
66730.5 28355.5 lineto
66618 28411.7 lineto
66449.3 28411.7 lineto
66336.8 28468 lineto
66280.6 28580.4 lineto
66280.6 28636.7 lineto
66336.8 28749.2 lineto
66449.3 28805.4 lineto
66618 28805.4 lineto
66730.5 28749.2 lineto
stroke
newpath
67180.5 27568.1 moveto
67236.7 27624.3 lineto
67349.2 27793 lineto
67405.4 27905.5 lineto
67461.7 28074.2 lineto
67517.9 28355.5 lineto
67517.9 28580.4 lineto
67461.7 28861.7 lineto
67405.4 29030.4 lineto
67349.2 29142.9 lineto
67236.7 29311.6 lineto
67180.5 29367.8 lineto
stroke
newpath
40205.2 26680 moveto
40518.5 26993.3 lineto
40205.2 27306.5 lineto
39891.9 26993.3 lineto
40205.2 26680 lineto
poly0
0 0 0 setrgbcolor
0 0 0 setrgbcolor
newpath
41871.1 27640.1 moveto
41983.6 27640.1 lineto
42096.1 27583.8 lineto
42152.3 27527.6 lineto
42208.6 27415.1 lineto
42264.8 27190.1 lineto
42264.8 26908.9 lineto
42208.6 26683.9 lineto
42152.3 26571.4 lineto
42096.1 26515.2 lineto
41983.6 26459 lineto
41871.1 26459 lineto
41758.6 26515.2 lineto
41702.4 26571.4 lineto
41646.2 26683.9 lineto
41589.9 26908.9 lineto
41589.9 27190.1 lineto
41646.2 27415.1 lineto
41702.4 27527.6 lineto
41758.6 27583.8 lineto
41871.1 27640.1 lineto
stroke
newpath
42771 26571.4 moveto
42827.3 26515.2 lineto
42771 26459 lineto
42714.8 26515.2 lineto
42771 26571.4 lineto
42771 26459 lineto
stroke
newpath
43389.7 26459 moveto
43614.7 26459 lineto
43727.1 26515.2 lineto
43783.4 26571.4 lineto
43895.9 26740.2 lineto
43952.1 26965.1 lineto
43952.1 27415.1 lineto
43895.9 27527.6 lineto
43839.6 27583.8 lineto
43727.1 27640.1 lineto
43502.2 27640.1 lineto
43389.7 27583.8 lineto
43333.4 27527.6 lineto
43277.2 27415.1 lineto
43277.2 27133.9 lineto
43333.4 27021.4 lineto
43389.7 26965.1 lineto
43502.2 26908.9 lineto
43727.1 26908.9 lineto
43839.6 26965.1 lineto
43895.9 27021.4 lineto
43952.1 27133.9 lineto
stroke
newpath
44683.3 27640.1 moveto
44795.8 27640.1 lineto
44908.2 27583.8 lineto
44964.5 27527.6 lineto
45020.7 27415.1 lineto
45077 27190.1 lineto
45077 26908.9 lineto
45020.7 26683.9 lineto
44964.5 26571.4 lineto
44908.2 26515.2 lineto
44795.8 26459 lineto
44683.3 26459 lineto
44570.8 26515.2 lineto
44514.5 26571.4 lineto
44458.3 26683.9 lineto
44402.1 26908.9 lineto
44402.1 27190.1 lineto
44458.3 27415.1 lineto
44514.5 27527.6 lineto
44570.8 27583.8 lineto
44683.3 27640.1 lineto
stroke
newpath
45583.2 26459 moveto
45583.2 27246.4 lineto
stroke
newpath
45583.2 27133.9 moveto
45639.4 27190.1 lineto
45751.9 27246.4 lineto
45920.6 27246.4 lineto
46033.1 27190.1 lineto
46089.3 27077.6 lineto
46089.3 26459 lineto
stroke
newpath
46089.3 27077.6 moveto
46145.6 27190.1 lineto
46258.1 27246.4 lineto
46426.8 27246.4 lineto
46539.3 27190.1 lineto
46595.5 27077.6 lineto
46595.5 26459 lineto
stroke
newpath
47158 26459 moveto
47158 27246.4 lineto
stroke
newpath
47158 27133.9 moveto
47214.2 27190.1 lineto
47326.7 27246.4 lineto
47495.4 27246.4 lineto
47607.9 27190.1 lineto
47664.1 27077.6 lineto
47664.1 26459 lineto
stroke
newpath
47664.1 27077.6 moveto
47720.4 27190.1 lineto
47832.9 27246.4 lineto
48001.6 27246.4 lineto
48114.1 27190.1 lineto
48170.3 27077.6 lineto
48170.3 26459 lineto
stroke
newpath
50476.3 27696.3 moveto
49463.9 26177.7 lineto
stroke
newpath
51994.9 27640.1 moveto
52107.3 27640.1 lineto
52219.8 27583.8 lineto
52276.1 27527.6 lineto
52332.3 27415.1 lineto
52388.6 27190.1 lineto
52388.6 26908.9 lineto
52332.3 26683.9 lineto
52276.1 26571.4 lineto
52219.8 26515.2 lineto
52107.3 26459 lineto
51994.9 26459 lineto
51882.4 26515.2 lineto
51826.1 26571.4 lineto
51769.9 26683.9 lineto
51713.6 26908.9 lineto
51713.6 27190.1 lineto
51769.9 27415.1 lineto
51826.1 27527.6 lineto
51882.4 27583.8 lineto
51994.9 27640.1 lineto
stroke
newpath
52894.7 26571.4 moveto
52951 26515.2 lineto
52894.7 26459 lineto
52838.5 26515.2 lineto
52894.7 26571.4 lineto
52894.7 26459 lineto
stroke
newpath
53682.1 27640.1 moveto
53794.6 27640.1 lineto
53907.1 27583.8 lineto
53963.4 27527.6 lineto
54019.6 27415.1 lineto
54075.8 27190.1 lineto
54075.8 26908.9 lineto
54019.6 26683.9 lineto
53963.4 26571.4 lineto
53907.1 26515.2 lineto
53794.6 26459 lineto
53682.1 26459 lineto
53569.7 26515.2 lineto
53513.4 26571.4 lineto
53457.2 26683.9 lineto
53400.9 26908.9 lineto
53400.9 27190.1 lineto
53457.2 27415.1 lineto
53513.4 27527.6 lineto
53569.7 27583.8 lineto
53682.1 27640.1 lineto
stroke
newpath
54469.5 27640.1 moveto
55200.7 27640.1 lineto
54807 27190.1 lineto
54975.7 27190.1 lineto
55088.2 27133.9 lineto
55144.5 27077.6 lineto
55200.7 26965.1 lineto
55200.7 26683.9 lineto
55144.5 26571.4 lineto
55088.2 26515.2 lineto
54975.7 26459 lineto
54638.3 26459 lineto
54525.8 26515.2 lineto
54469.5 26571.4 lineto
stroke
newpath
56269.3 27640.1 moveto
55706.9 27640.1 lineto
55650.7 27077.6 lineto
55706.9 27133.9 lineto
55819.4 27190.1 lineto
56100.6 27190.1 lineto
56213.1 27133.9 lineto
56269.3 27077.6 lineto
56325.6 26965.1 lineto
56325.6 26683.9 lineto
56269.3 26571.4 lineto
56213.1 26515.2 lineto
56100.6 26459 lineto
55819.4 26459 lineto
55706.9 26515.2 lineto
55650.7 26571.4 lineto
stroke
newpath
56775.5 27640.1 moveto
56775.5 27415.1 lineto
stroke
newpath
57225.5 27640.1 moveto
57225.5 27415.1 lineto
stroke
newpath
58969 26009 moveto
58912.7 26065.3 lineto
58800.3 26234 lineto
58744 26346.5 lineto
58687.8 26515.2 lineto
58631.5 26796.4 lineto
58631.5 27021.4 lineto
58687.8 27302.6 lineto
58744 27471.3 lineto
58800.3 27583.8 lineto
58912.7 27752.5 lineto
58969 27808.8 lineto
stroke
newpath
59925.1 27246.4 moveto
59925.1 26459 lineto
stroke
newpath
59643.9 27696.3 moveto
59362.7 26852.7 lineto
60093.8 26852.7 lineto
stroke
newpath
61443.7 26459 moveto
61443.7 27640.1 lineto
stroke
newpath
61949.9 26459 moveto
61949.9 27077.6 lineto
61893.6 27190.1 lineto
61781.1 27246.4 lineto
61612.4 27246.4 lineto
61499.9 27190.1 lineto
61443.7 27133.9 lineto
stroke
newpath
62681 26459 moveto
62568.5 26515.2 lineto
62512.3 26571.4 lineto
62456.1 26683.9 lineto
62456.1 27021.4 lineto
62512.3 27133.9 lineto
62568.5 27190.1 lineto
62681 27246.4 lineto
62849.8 27246.4 lineto
62962.2 27190.1 lineto
63018.5 27133.9 lineto
63074.7 27021.4 lineto
63074.7 26683.9 lineto
63018.5 26571.4 lineto
62962.2 26515.2 lineto
62849.8 26459 lineto
62681 26459 lineto
stroke
newpath
63749.6 26459 moveto
63637.2 26515.2 lineto
63580.9 26627.7 lineto
63580.9 27640.1 lineto
stroke
newpath
64649.5 26515.2 moveto
64537 26459 lineto
64312.1 26459 lineto
64199.6 26515.2 lineto
64143.3 26627.7 lineto
64143.3 27077.6 lineto
64199.6 27190.1 lineto
64312.1 27246.4 lineto
64537 27246.4 lineto
64649.5 27190.1 lineto
64705.8 27077.6 lineto
64705.8 26965.1 lineto
64143.3 26852.7 lineto
stroke
newpath
65155.7 26515.2 moveto
65268.2 26459 lineto
65493.2 26459 lineto
65605.7 26515.2 lineto
65661.9 26627.7 lineto
65661.9 26683.9 lineto
65605.7 26796.4 lineto
65493.2 26852.7 lineto
65324.4 26852.7 lineto
65212 26908.9 lineto
65155.7 27021.4 lineto
65155.7 27077.6 lineto
65212 27190.1 lineto
65324.4 27246.4 lineto
65493.2 27246.4 lineto
65605.7 27190.1 lineto
stroke
newpath
66055.6 26009 moveto
66111.8 26065.3 lineto
66224.3 26234 lineto
66280.6 26346.5 lineto
66336.8 26515.2 lineto
66393.1 26796.4 lineto
66393.1 27021.4 lineto
66336.8 27302.6 lineto
66280.6 27471.3 lineto
66224.3 27583.8 lineto
66111.8 27752.5 lineto
66055.6 27808.8 lineto
stroke
newpath
39821.6 25782.6 moveto
40518.5 25085.8 lineto
stroke
newpath
40518.5 25782.6 moveto
39821.6 25085.8 lineto
stroke
40170.1 25434.2 348.422 cir0
0 0 0 setrgbcolor
0 0 0 setrgbcolor
newpath
42264.8 24899.9 moveto
41589.9 24899.9 lineto
stroke
newpath
41927.4 24899.9 moveto
41927.4 26081 lineto
41814.9 25912.3 lineto
41702.4 25799.8 lineto
41589.9 25743.5 lineto
stroke
newpath
42771 25012.4 moveto
42827.3 24956.1 lineto
42771 24899.9 lineto
42714.8 24956.1 lineto
42771 25012.4 lineto
42771 24899.9 lineto
stroke
newpath
43558.4 26081 moveto
43670.9 26081 lineto
43783.4 26024.8 lineto
43839.6 25968.5 lineto
43895.9 25856 lineto
43952.1 25631.1 lineto
43952.1 25349.8 lineto
43895.9 25124.9 lineto
43839.6 25012.4 lineto
43783.4 24956.1 lineto
43670.9 24899.9 lineto
43558.4 24899.9 lineto
43445.9 24956.1 lineto
43389.7 25012.4 lineto
43333.4 25124.9 lineto
43277.2 25349.8 lineto
43277.2 25631.1 lineto
43333.4 25856 lineto
43389.7 25968.5 lineto
43445.9 26024.8 lineto
43558.4 26081 lineto
stroke
newpath
44683.3 26081 moveto
44795.8 26081 lineto
44908.2 26024.8 lineto
44964.5 25968.5 lineto
45020.7 25856 lineto
45077 25631.1 lineto
45077 25349.8 lineto
45020.7 25124.9 lineto
44964.5 25012.4 lineto
44908.2 24956.1 lineto
44795.8 24899.9 lineto
44683.3 24899.9 lineto
44570.8 24956.1 lineto
44514.5 25012.4 lineto
44458.3 25124.9 lineto
44402.1 25349.8 lineto
44402.1 25631.1 lineto
44458.3 25856 lineto
44514.5 25968.5 lineto
44570.8 26024.8 lineto
44683.3 26081 lineto
stroke
newpath
45583.2 24899.9 moveto
45583.2 25687.3 lineto
stroke
newpath
45583.2 25574.8 moveto
45639.4 25631.1 lineto
45751.9 25687.3 lineto
45920.6 25687.3 lineto
46033.1 25631.1 lineto
46089.3 25518.6 lineto
46089.3 24899.9 lineto
stroke
newpath
46089.3 25518.6 moveto
46145.6 25631.1 lineto
46258.1 25687.3 lineto
46426.8 25687.3 lineto
46539.3 25631.1 lineto
46595.5 25518.6 lineto
46595.5 24899.9 lineto
stroke
newpath
47158 24899.9 moveto
47158 25687.3 lineto
stroke
newpath
47158 25574.8 moveto
47214.2 25631.1 lineto
47326.7 25687.3 lineto
47495.4 25687.3 lineto
47607.9 25631.1 lineto
47664.1 25518.6 lineto
47664.1 24899.9 lineto
stroke
newpath
47664.1 25518.6 moveto
47720.4 25631.1 lineto
47832.9 25687.3 lineto
48001.6 25687.3 lineto
48114.1 25631.1 lineto
48170.3 25518.6 lineto
48170.3 24899.9 lineto
stroke
newpath
50476.3 26137.2 moveto
49463.9 24618.7 lineto
stroke
newpath
51994.9 26081 moveto
52107.3 26081 lineto
52219.8 26024.8 lineto
52276.1 25968.5 lineto
52332.3 25856 lineto
52388.6 25631.1 lineto
52388.6 25349.8 lineto
52332.3 25124.9 lineto
52276.1 25012.4 lineto
52219.8 24956.1 lineto
52107.3 24899.9 lineto
51994.9 24899.9 lineto
51882.4 24956.1 lineto
51826.1 25012.4 lineto
51769.9 25124.9 lineto
51713.6 25349.8 lineto
51713.6 25631.1 lineto
51769.9 25856 lineto
51826.1 25968.5 lineto
51882.4 26024.8 lineto
51994.9 26081 lineto
stroke
newpath
52894.7 25012.4 moveto
52951 24956.1 lineto
52894.7 24899.9 lineto
52838.5 24956.1 lineto
52894.7 25012.4 lineto
52894.7 24899.9 lineto
stroke
newpath
53682.1 26081 moveto
53794.6 26081 lineto
53907.1 26024.8 lineto
53963.4 25968.5 lineto
54019.6 25856 lineto
54075.8 25631.1 lineto
54075.8 25349.8 lineto
54019.6 25124.9 lineto
53963.4 25012.4 lineto
53907.1 24956.1 lineto
53794.6 24899.9 lineto
53682.1 24899.9 lineto
53569.7 24956.1 lineto
53513.4 25012.4 lineto
53457.2 25124.9 lineto
53400.9 25349.8 lineto
53400.9 25631.1 lineto
53457.2 25856 lineto
53513.4 25968.5 lineto
53569.7 26024.8 lineto
53682.1 26081 lineto
stroke
newpath
54469.5 26081 moveto
55200.7 26081 lineto
54807 25631.1 lineto
54975.7 25631.1 lineto
55088.2 25574.8 lineto
55144.5 25518.6 lineto
55200.7 25406.1 lineto
55200.7 25124.9 lineto
55144.5 25012.4 lineto
55088.2 24956.1 lineto
54975.7 24899.9 lineto
54638.3 24899.9 lineto
54525.8 24956.1 lineto
54469.5 25012.4 lineto
stroke
newpath
55763.1 24899.9 moveto
55988.1 24899.9 lineto
56100.6 24956.1 lineto
56156.8 25012.4 lineto
56269.3 25181.1 lineto
56325.6 25406.1 lineto
56325.6 25856 lineto
56269.3 25968.5 lineto
56213.1 26024.8 lineto
56100.6 26081 lineto
55875.6 26081 lineto
55763.1 26024.8 lineto
55706.9 25968.5 lineto
55650.7 25856 lineto
55650.7 25574.8 lineto
55706.9 25462.3 lineto
55763.1 25406.1 lineto
55875.6 25349.8 lineto
56100.6 25349.8 lineto
56213.1 25406.1 lineto
56269.3 25462.3 lineto
56325.6 25574.8 lineto
stroke
newpath
56775.5 26081 moveto
56775.5 25856 lineto
stroke
newpath
57225.5 26081 moveto
57225.5 25856 lineto
stroke
newpath
58969 24450 moveto
58912.7 24506.2 lineto
58800.3 24674.9 lineto
58744 24787.4 lineto
58687.8 24956.1 lineto
58631.5 25237.4 lineto
58631.5 25462.3 lineto
58687.8 25743.5 lineto
58744 25912.3 lineto
58800.3 26024.8 lineto
58912.7 26193.5 lineto
58969 26249.7 lineto
stroke
newpath
59587.7 25574.8 moveto
59475.2 25631.1 lineto
59418.9 25687.3 lineto
59362.7 25799.8 lineto
59362.7 25856 lineto
59418.9 25968.5 lineto
59475.2 26024.8 lineto
59587.7 26081 lineto
59812.6 26081 lineto
59925.1 26024.8 lineto
59981.4 25968.5 lineto
60037.6 25856 lineto
60037.6 25799.8 lineto
59981.4 25687.3 lineto
59925.1 25631.1 lineto
59812.6 25574.8 lineto
59587.7 25574.8 lineto
59475.2 25518.6 lineto
59418.9 25462.3 lineto
59362.7 25349.8 lineto
59362.7 25124.9 lineto
59418.9 25012.4 lineto
59475.2 24956.1 lineto
59587.7 24899.9 lineto
59812.6 24899.9 lineto
59925.1 24956.1 lineto
59981.4 25012.4 lineto
60037.6 25124.9 lineto
60037.6 25349.8 lineto
59981.4 25462.3 lineto
59925.1 25518.6 lineto
59812.6 25574.8 lineto
stroke
newpath
61443.7 24899.9 moveto
61443.7 26081 lineto
stroke
newpath
61949.9 24899.9 moveto
61949.9 25518.6 lineto
61893.6 25631.1 lineto
61781.1 25687.3 lineto
61612.4 25687.3 lineto
61499.9 25631.1 lineto
61443.7 25574.8 lineto
stroke
newpath
62681 24899.9 moveto
62568.5 24956.1 lineto
62512.3 25012.4 lineto
62456.1 25124.9 lineto
62456.1 25462.3 lineto
62512.3 25574.8 lineto
62568.5 25631.1 lineto
62681 25687.3 lineto
62849.8 25687.3 lineto
62962.2 25631.1 lineto
63018.5 25574.8 lineto
63074.7 25462.3 lineto
63074.7 25124.9 lineto
63018.5 25012.4 lineto
62962.2 24956.1 lineto
62849.8 24899.9 lineto
62681 24899.9 lineto
stroke
newpath
63749.6 24899.9 moveto
63637.2 24956.1 lineto
63580.9 25068.6 lineto
63580.9 26081 lineto
stroke
newpath
64649.5 24956.1 moveto
64537 24899.9 lineto
64312.1 24899.9 lineto
64199.6 24956.1 lineto
64143.3 25068.6 lineto
64143.3 25518.6 lineto
64199.6 25631.1 lineto
64312.1 25687.3 lineto
64537 25687.3 lineto
64649.5 25631.1 lineto
64705.8 25518.6 lineto
64705.8 25406.1 lineto
64143.3 25293.6 lineto
stroke
newpath
65155.7 24956.1 moveto
65268.2 24899.9 lineto
65493.2 24899.9 lineto
65605.7 24956.1 lineto
65661.9 25068.6 lineto
65661.9 25124.9 lineto
65605.7 25237.4 lineto
65493.2 25293.6 lineto
65324.4 25293.6 lineto
65212 25349.8 lineto
65155.7 25462.3 lineto
65155.7 25518.6 lineto
65212 25631.1 lineto
65324.4 25687.3 lineto
65493.2 25687.3 lineto
65605.7 25631.1 lineto
stroke
newpath
66055.6 24450 moveto
66111.8 24506.2 lineto
66224.3 24674.9 lineto
66280.6 24787.4 lineto
66336.8 24956.1 lineto
66393.1 25237.4 lineto
66393.1 25462.3 lineto
66336.8 25743.5 lineto
66280.6 25912.3 lineto
66224.3 26024.8 lineto
66111.8 26193.5 lineto
66055.6 26249.7 lineto
stroke
newpath
39810.5 24229.1 moveto
40518.5 23521.2 lineto
stroke
newpath
40518.5 24229.1 moveto
39810.5 23521.2 lineto
stroke
newpath
40164.5 24229.1 moveto
40164.5 23521.2 lineto
stroke
newpath
39810.5 23875.1 moveto
40518.5 23875.1 lineto
stroke
0 0 0 setrgbcolor
0 0 0 setrgbcolor
newpath
42264.8 23340.8 moveto
41589.9 23340.8 lineto
stroke
newpath
41927.4 23340.8 moveto
41927.4 24521.9 lineto
41814.9 24353.2 lineto
41702.4 24240.7 lineto
41589.9 24184.5 lineto
stroke
newpath
42771 23453.3 moveto
42827.3 23397.1 lineto
42771 23340.8 lineto
42714.8 23397.1 lineto
42771 23453.3 lineto
42771 23340.8 lineto
stroke
newpath
43558.4 24521.9 moveto
43670.9 24521.9 lineto
43783.4 24465.7 lineto
43839.6 24409.5 lineto
43895.9 24297 lineto
43952.1 24072 lineto
43952.1 23790.8 lineto
43895.9 23565.8 lineto
43839.6 23453.3 lineto
43783.4 23397.1 lineto
43670.9 23340.8 lineto
43558.4 23340.8 lineto
43445.9 23397.1 lineto
43389.7 23453.3 lineto
43333.4 23565.8 lineto
43277.2 23790.8 lineto
43277.2 24072 lineto
43333.4 24297 lineto
43389.7 24409.5 lineto
43445.9 24465.7 lineto
43558.4 24521.9 lineto
stroke
newpath
44402.1 24409.5 moveto
44458.3 24465.7 lineto
44570.8 24521.9 lineto
44852 24521.9 lineto
44964.5 24465.7 lineto
45020.7 24409.5 lineto
45077 24297 lineto
45077 24184.5 lineto
45020.7 24015.8 lineto
44345.8 23340.8 lineto
45077 23340.8 lineto
stroke
newpath
45583.2 23340.8 moveto
45583.2 24128.2 lineto
stroke
newpath
45583.2 24015.8 moveto
45639.4 24072 lineto
45751.9 24128.2 lineto
45920.6 24128.2 lineto
46033.1 24072 lineto
46089.3 23959.5 lineto
46089.3 23340.8 lineto
stroke
newpath
46089.3 23959.5 moveto
46145.6 24072 lineto
46258.1 24128.2 lineto
46426.8 24128.2 lineto
46539.3 24072 lineto
46595.5 23959.5 lineto
46595.5 23340.8 lineto
stroke
newpath
47158 23340.8 moveto
47158 24128.2 lineto
stroke
newpath
47158 24015.8 moveto
47214.2 24072 lineto
47326.7 24128.2 lineto
47495.4 24128.2 lineto
47607.9 24072 lineto
47664.1 23959.5 lineto
47664.1 23340.8 lineto
stroke
newpath
47664.1 23959.5 moveto
47720.4 24072 lineto
47832.9 24128.2 lineto
48001.6 24128.2 lineto
48114.1 24072 lineto
48170.3 23959.5 lineto
48170.3 23340.8 lineto
stroke
newpath
50476.3 24578.2 moveto
49463.9 23059.6 lineto
stroke
newpath
51994.9 24521.9 moveto
52107.3 24521.9 lineto
52219.8 24465.7 lineto
52276.1 24409.5 lineto
52332.3 24297 lineto
52388.6 24072 lineto
52388.6 23790.8 lineto
52332.3 23565.8 lineto
52276.1 23453.3 lineto
52219.8 23397.1 lineto
52107.3 23340.8 lineto
51994.9 23340.8 lineto
51882.4 23397.1 lineto
51826.1 23453.3 lineto
51769.9 23565.8 lineto
51713.6 23790.8 lineto
51713.6 24072 lineto
51769.9 24297 lineto
51826.1 24409.5 lineto
51882.4 24465.7 lineto
51994.9 24521.9 lineto
stroke
newpath
52894.7 23453.3 moveto
52951 23397.1 lineto
52894.7 23340.8 lineto
52838.5 23397.1 lineto
52894.7 23453.3 lineto
52894.7 23340.8 lineto
stroke
newpath
53682.1 24521.9 moveto
53794.6 24521.9 lineto
53907.1 24465.7 lineto
53963.4 24409.5 lineto
54019.6 24297 lineto
54075.8 24072 lineto
54075.8 23790.8 lineto
54019.6 23565.8 lineto
53963.4 23453.3 lineto
53907.1 23397.1 lineto
53794.6 23340.8 lineto
53682.1 23340.8 lineto
53569.7 23397.1 lineto
53513.4 23453.3 lineto
53457.2 23565.8 lineto
53400.9 23790.8 lineto
53400.9 24072 lineto
53457.2 24297 lineto
53513.4 24409.5 lineto
53569.7 24465.7 lineto
53682.1 24521.9 lineto
stroke
newpath
55088.2 24128.2 moveto
55088.2 23340.8 lineto
stroke
newpath
54807 24578.2 moveto
54525.8 23734.5 lineto
55257 23734.5 lineto
stroke
newpath
55931.9 24521.9 moveto
56044.4 24521.9 lineto
56156.8 24465.7 lineto
56213.1 24409.5 lineto
56269.3 24297 lineto
56325.6 24072 lineto
56325.6 23790.8 lineto
56269.3 23565.8 lineto
56213.1 23453.3 lineto
56156.8 23397.1 lineto
56044.4 23340.8 lineto
55931.9 23340.8 lineto
55819.4 23397.1 lineto
55763.1 23453.3 lineto
55706.9 23565.8 lineto
55650.7 23790.8 lineto
55650.7 24072 lineto
55706.9 24297 lineto
55763.1 24409.5 lineto
55819.4 24465.7 lineto
55931.9 24521.9 lineto
stroke
newpath
56775.5 24521.9 moveto
56775.5 24297 lineto
stroke
newpath
57225.5 24521.9 moveto
57225.5 24297 lineto
stroke
newpath
58969 22890.9 moveto
58912.7 22947.1 lineto
58800.3 23115.9 lineto
58744 23228.4 lineto
58687.8 23397.1 lineto
58631.5 23678.3 lineto
58631.5 23903.3 lineto
58687.8 24184.5 lineto
58744 24353.2 lineto
58800.3 24465.7 lineto
58912.7 24634.4 lineto
58969 24690.7 lineto
stroke
newpath
60037.6 23340.8 moveto
59362.7 23340.8 lineto
stroke
newpath
59700.1 23340.8 moveto
59700.1 24521.9 lineto
59587.7 24353.2 lineto
59475.2 24240.7 lineto
59362.7 24184.5 lineto
stroke
newpath
60768.8 24521.9 moveto
60881.2 24521.9 lineto
60993.7 24465.7 lineto
61050 24409.5 lineto
61106.2 24297 lineto
61162.5 24072 lineto
61162.5 23790.8 lineto
61106.2 23565.8 lineto
61050 23453.3 lineto
60993.7 23397.1 lineto
60881.2 23340.8 lineto
60768.8 23340.8 lineto
60656.3 23397.1 lineto
60600 23453.3 lineto
60543.8 23565.8 lineto
60487.5 23790.8 lineto
60487.5 24072 lineto
60543.8 24297 lineto
60600 24409.5 lineto
60656.3 24465.7 lineto
60768.8 24521.9 lineto
stroke
newpath
62568.5 23340.8 moveto
62568.5 24521.9 lineto
stroke
newpath
63074.7 23340.8 moveto
63074.7 23959.5 lineto
63018.5 24072 lineto
62906 24128.2 lineto
62737.3 24128.2 lineto
62624.8 24072 lineto
62568.5 24015.8 lineto
stroke
newpath
63805.9 23340.8 moveto
63693.4 23397.1 lineto
63637.2 23453.3 lineto
63580.9 23565.8 lineto
63580.9 23903.3 lineto
63637.2 24015.8 lineto
63693.4 24072 lineto
63805.9 24128.2 lineto
63974.6 24128.2 lineto
64087.1 24072 lineto
64143.3 24015.8 lineto
64199.6 23903.3 lineto
64199.6 23565.8 lineto
64143.3 23453.3 lineto
64087.1 23397.1 lineto
63974.6 23340.8 lineto
63805.9 23340.8 lineto
stroke
newpath
64874.5 23340.8 moveto
64762 23397.1 lineto
64705.8 23509.6 lineto
64705.8 24521.9 lineto
stroke
newpath
65774.4 23397.1 moveto
65661.9 23340.8 lineto
65436.9 23340.8 lineto
65324.4 23397.1 lineto
65268.2 23509.6 lineto
65268.2 23959.5 lineto
65324.4 24072 lineto
65436.9 24128.2 lineto
65661.9 24128.2 lineto
65774.4 24072 lineto
65830.6 23959.5 lineto
65830.6 23847 lineto
65268.2 23734.5 lineto
stroke
newpath
66280.6 23397.1 moveto
66393.1 23340.8 lineto
66618 23340.8 lineto
66730.5 23397.1 lineto
66786.8 23509.6 lineto
66786.8 23565.8 lineto
66730.5 23678.3 lineto
66618 23734.5 lineto
66449.3 23734.5 lineto
66336.8 23790.8 lineto
66280.6 23903.3 lineto
66280.6 23959.5 lineto
66336.8 24072 lineto
66449.3 24128.2 lineto
66618 24128.2 lineto
66730.5 24072 lineto
stroke
newpath
67180.5 22890.9 moveto
67236.7 22947.1 lineto
67349.2 23115.9 lineto
67405.4 23228.4 lineto
67461.7 23397.1 lineto
67517.9 23678.3 lineto
67517.9 23903.3 lineto
67461.7 24184.5 lineto
67405.4 24353.2 lineto
67349.2 24465.7 lineto
67236.7 24634.4 lineto
67180.5 24690.7 lineto
stroke
newpath
39752 22699.4 moveto
40518.5 21932.8 lineto
stroke
newpath
40518.5 22699.4 moveto
39752 21932.8 lineto
stroke
newpath
40406.2 22045.1 moveto
40406.2 22587.1 lineto
39864.2 22587.1 lineto
39864.2 22045.1 lineto
40406.2 22045.1 lineto
poly0
0 0 0 setrgbcolor
0 0 0 setrgbcolor
newpath
42264.8 21781.8 moveto
41589.9 21781.8 lineto
stroke
newpath
41927.4 21781.8 moveto
41927.4 22962.9 lineto
41814.9 22794.2 lineto
41702.4 22681.7 lineto
41589.9 22625.4 lineto
stroke
newpath
42771 21894.3 moveto
42827.3 21838 lineto
42771 21781.8 lineto
42714.8 21838 lineto
42771 21894.3 lineto
42771 21781.8 lineto
stroke
newpath
43952.1 21781.8 moveto
43277.2 21781.8 lineto
stroke
newpath
43614.7 21781.8 moveto
43614.7 22962.9 lineto
43502.2 22794.2 lineto
43389.7 22681.7 lineto
43277.2 22625.4 lineto
stroke
newpath
44683.3 22962.9 moveto
44795.8 22962.9 lineto
44908.2 22906.6 lineto
44964.5 22850.4 lineto
45020.7 22737.9 lineto
45077 22512.9 lineto
45077 22231.7 lineto
45020.7 22006.8 lineto
44964.5 21894.3 lineto
44908.2 21838 lineto
44795.8 21781.8 lineto
44683.3 21781.8 lineto
44570.8 21838 lineto
44514.5 21894.3 lineto
44458.3 22006.8 lineto
44402.1 22231.7 lineto
44402.1 22512.9 lineto
44458.3 22737.9 lineto
44514.5 22850.4 lineto
44570.8 22906.6 lineto
44683.3 22962.9 lineto
stroke
newpath
45583.2 21781.8 moveto
45583.2 22569.2 lineto
stroke
newpath
45583.2 22456.7 moveto
45639.4 22512.9 lineto
45751.9 22569.2 lineto
45920.6 22569.2 lineto
46033.1 22512.9 lineto
46089.3 22400.5 lineto
46089.3 21781.8 lineto
stroke
newpath
46089.3 22400.5 moveto
46145.6 22512.9 lineto
46258.1 22569.2 lineto
46426.8 22569.2 lineto
46539.3 22512.9 lineto
46595.5 22400.5 lineto
46595.5 21781.8 lineto
stroke
newpath
47158 21781.8 moveto
47158 22569.2 lineto
stroke
newpath
47158 22456.7 moveto
47214.2 22512.9 lineto
47326.7 22569.2 lineto
47495.4 22569.2 lineto
47607.9 22512.9 lineto
47664.1 22400.5 lineto
47664.1 21781.8 lineto
stroke
newpath
47664.1 22400.5 moveto
47720.4 22512.9 lineto
47832.9 22569.2 lineto
48001.6 22569.2 lineto
48114.1 22512.9 lineto
48170.3 22400.5 lineto
48170.3 21781.8 lineto
stroke
newpath
50476.3 23019.1 moveto
49463.9 21500.6 lineto
stroke
newpath
51994.9 22962.9 moveto
52107.3 22962.9 lineto
52219.8 22906.6 lineto
52276.1 22850.4 lineto
52332.3 22737.9 lineto
52388.6 22512.9 lineto
52388.6 22231.7 lineto
52332.3 22006.8 lineto
52276.1 21894.3 lineto
52219.8 21838 lineto
52107.3 21781.8 lineto
51994.9 21781.8 lineto
51882.4 21838 lineto
51826.1 21894.3 lineto
51769.9 22006.8 lineto
51713.6 22231.7 lineto
51713.6 22512.9 lineto
51769.9 22737.9 lineto
51826.1 22850.4 lineto
51882.4 22906.6 lineto
51994.9 22962.9 lineto
stroke
newpath
52894.7 21894.3 moveto
52951 21838 lineto
52894.7 21781.8 lineto
52838.5 21838 lineto
52894.7 21894.3 lineto
52894.7 21781.8 lineto
stroke
newpath
53682.1 22962.9 moveto
53794.6 22962.9 lineto
53907.1 22906.6 lineto
53963.4 22850.4 lineto
54019.6 22737.9 lineto
54075.8 22512.9 lineto
54075.8 22231.7 lineto
54019.6 22006.8 lineto
53963.4 21894.3 lineto
53907.1 21838 lineto
53794.6 21781.8 lineto
53682.1 21781.8 lineto
53569.7 21838 lineto
53513.4 21894.3 lineto
53457.2 22006.8 lineto
53400.9 22231.7 lineto
53400.9 22512.9 lineto
53457.2 22737.9 lineto
53513.4 22850.4 lineto
53569.7 22906.6 lineto
53682.1 22962.9 lineto
stroke
newpath
55088.2 22569.2 moveto
55088.2 21781.8 lineto
stroke
newpath
54807 23019.1 moveto
54525.8 22175.5 lineto
55257 22175.5 lineto
stroke
newpath
55594.4 22962.9 moveto
56325.6 22962.9 lineto
55931.9 22512.9 lineto
56100.6 22512.9 lineto
56213.1 22456.7 lineto
56269.3 22400.5 lineto
56325.6 22288 lineto
56325.6 22006.8 lineto
56269.3 21894.3 lineto
56213.1 21838 lineto
56100.6 21781.8 lineto
55763.1 21781.8 lineto
55650.7 21838 lineto
55594.4 21894.3 lineto
stroke
newpath
56775.5 22962.9 moveto
56775.5 22737.9 lineto
stroke
newpath
57225.5 22962.9 moveto
57225.5 22737.9 lineto
stroke
newpath
58969 21331.8 moveto
58912.7 21388.1 lineto
58800.3 21556.8 lineto
58744 21669.3 lineto
58687.8 21838 lineto
58631.5 22119.2 lineto
58631.5 22344.2 lineto
58687.8 22625.4 lineto
58744 22794.2 lineto
58800.3 22906.6 lineto
58912.7 23075.4 lineto
58969 23131.6 lineto
stroke
newpath
59925.1 22569.2 moveto
59925.1 21781.8 lineto
stroke
newpath
59643.9 23019.1 moveto
59362.7 22175.5 lineto
60093.8 22175.5 lineto
stroke
newpath
61443.7 21781.8 moveto
61443.7 22962.9 lineto
stroke
newpath
61949.9 21781.8 moveto
61949.9 22400.5 lineto
61893.6 22512.9 lineto
61781.1 22569.2 lineto
61612.4 22569.2 lineto
61499.9 22512.9 lineto
61443.7 22456.7 lineto
stroke
newpath
62681 21781.8 moveto
62568.5 21838 lineto
62512.3 21894.3 lineto
62456.1 22006.8 lineto
62456.1 22344.2 lineto
62512.3 22456.7 lineto
62568.5 22512.9 lineto
62681 22569.2 lineto
62849.8 22569.2 lineto
62962.2 22512.9 lineto
63018.5 22456.7 lineto
63074.7 22344.2 lineto
63074.7 22006.8 lineto
63018.5 21894.3 lineto
62962.2 21838 lineto
62849.8 21781.8 lineto
62681 21781.8 lineto
stroke
newpath
63749.6 21781.8 moveto
63637.2 21838 lineto
63580.9 21950.5 lineto
63580.9 22962.9 lineto
stroke
newpath
64649.5 21838 moveto
64537 21781.8 lineto
64312.1 21781.8 lineto
64199.6 21838 lineto
64143.3 21950.5 lineto
64143.3 22400.5 lineto
64199.6 22512.9 lineto
64312.1 22569.2 lineto
64537 22569.2 lineto
64649.5 22512.9 lineto
64705.8 22400.5 lineto
64705.8 22288 lineto
64143.3 22175.5 lineto
stroke
newpath
65155.7 21838 moveto
65268.2 21781.8 lineto
65493.2 21781.8 lineto
65605.7 21838 lineto
65661.9 21950.5 lineto
65661.9 22006.8 lineto
65605.7 22119.2 lineto
65493.2 22175.5 lineto
65324.4 22175.5 lineto
65212 22231.7 lineto
65155.7 22344.2 lineto
65155.7 22400.5 lineto
65212 22512.9 lineto
65324.4 22569.2 lineto
65493.2 22569.2 lineto
65605.7 22512.9 lineto
stroke
newpath
66055.6 21331.8 moveto
66111.8 21388.1 lineto
66224.3 21556.8 lineto
66280.6 21669.3 lineto
66336.8 21838 lineto
66393.1 22119.2 lineto
66393.1 22344.2 lineto
66336.8 22625.4 lineto
66280.6 22794.2 lineto
66224.3 22906.6 lineto
66111.8 23075.4 lineto
66055.6 23131.6 lineto
stroke
showpage
grestore
%%EOF
