%!PS-Adobe-3.0
%%Creator: PCBNEW
%%CreationDate: Tue Jan 29 21:41:42 2019
%%Title: /home/Grzegorz/Projects/Home_Hub_Project/temp_node/PCB/temp_node/Gerber/temp_node-NPTH-drl_map.ps
%%Pages: 1
%%PageOrder: Ascend
%%BoundingBox: 0 0 596 842
%%DocumentMedia: A4 595 842 0 () ()
%%Orientation: Landscape
%%EndComments
%%BeginProlog
/line { newpath moveto lineto stroke } bind def
/cir0 { newpath 0 360 arc stroke } bind def
/cir1 { newpath 0 360 arc gsave fill grestore stroke } bind def
/cir2 { newpath 0 360 arc gsave fill grestore stroke } bind def
/arc0 { newpath arc stroke } bind def
/arc1 { newpath 4 index 4 index moveto arc closepath gsave fill
    grestore stroke } bind def
/arc2 { newpath 4 index 4 index moveto arc closepath gsave fill
    grestore stroke } bind def
/poly0 { stroke } bind def
/poly1 { closepath gsave fill grestore stroke } bind def
/poly2 { closepath gsave fill grestore stroke } bind def
/rect0 { rectstroke } bind def
/rect1 { rectfill } bind def
/rect2 { rectfill } bind def
/linemode0 { 0 setlinecap 0 setlinejoin 0 setlinewidth } bind def
/linemode1 { 1 setlinecap 1 setlinejoin } bind def
/dashedline { [200] 100 setdash } bind def
/solidline { [] 0 setdash } bind def
/phantomshow { moveto
    /KicadFont findfont 0.000001 scalefont setfont
    show } bind def
/textshow { gsave
    findfont exch scalefont setfont concat 1 scale 0 0 moveto show
    } bind def
/reencodefont {
  findfont dup length dict begin
  { 1 index /FID ne
    { def }
    { pop pop } ifelse
  } forall
  /Encoding ISOLatin1Encoding def
  currentdict
  end } bind def
/KicadFont /Helvetica reencodefont definefont pop
/KicadFont-Bold /Helvetica-Bold reencodefont definefont pop
/KicadFont-Oblique /Helvetica-Oblique reencodefont definefont pop
/KicadFont-BoldOblique /Helvetica-BoldOblique reencodefont definefont pop
%%EndProlog
%%Page: 1 1
%%BeginPageSetup
gsave
0.0072 0.0072 scale
linemode1
82680 0 translate 90 rotate
88.4992 setlinewidth
%%EndPageSetup
0 0 0 setrgbcolor
139.369 setlinewidth
newpath
76341.8 78673.3 moveto
76164.8 37078.7 lineto
stroke
0 0 0 setrgbcolor
newpath
40588.2 78673.3 moveto
76341.8 78673.3 lineto
stroke
0 0 0 setrgbcolor
newpath
40588.2 37078.7 moveto
40588.2 78673.3 lineto
stroke
0 0 0 setrgbcolor
newpath
76164.8 37078.7 moveto
40588.2 37078.7 lineto
stroke
78.7399 setlinewidth
newpath
72217.9 41025.6 moveto
74447.8 38795.7 lineto
stroke
newpath
74447.8 41025.6 moveto
72217.9 38795.7 lineto
stroke
newpath
42128.2 76602.3 moveto
44358.1 74372.4 lineto
stroke
newpath
44358.1 76602.3 moveto
42128.2 74372.4 lineto
stroke
newpath
72394.9 76779.3 moveto
74624.8 74549.4 lineto
stroke
newpath
74624.8 76779.3 moveto
72394.9 74549.4 lineto
stroke
newpath
42305.2 41025.6 moveto
44535.1 38795.7 lineto
stroke
newpath
44535.1 41025.6 moveto
42305.2 38795.7 lineto
stroke
118.11 setlinewidth
0 0 0 setrgbcolor
0 0 0 setrgbcolor
newpath
41646.2 35175.5 moveto
41646.2 36356.6 lineto
41927.4 36356.6 lineto
42096.1 36300.3 lineto
42208.6 36187.9 lineto
42264.8 36075.4 lineto
42321.1 35850.4 lineto
42321.1 35681.7 lineto
42264.8 35456.7 lineto
42208.6 35344.2 lineto
42096.1 35231.7 lineto
41927.4 35175.5 lineto
41646.2 35175.5 lineto
stroke
newpath
42827.3 35175.5 moveto
42827.3 35962.9 lineto
stroke
newpath
42827.3 35737.9 moveto
42883.5 35850.4 lineto
42939.7 35906.6 lineto
43052.2 35962.9 lineto
43164.7 35962.9 lineto
stroke
newpath
43558.4 35175.5 moveto
43558.4 35962.9 lineto
stroke
newpath
43558.4 36356.6 moveto
43502.2 36300.3 lineto
43558.4 36244.1 lineto
43614.7 36300.3 lineto
43558.4 36356.6 lineto
43558.4 36244.1 lineto
stroke
newpath
44289.6 35175.5 moveto
44177.1 35231.7 lineto
44120.8 35344.2 lineto
44120.8 36356.6 lineto
stroke
newpath
44908.2 35175.5 moveto
44795.8 35231.7 lineto
44739.5 35344.2 lineto
44739.5 36356.6 lineto
stroke
newpath
46258.1 35175.5 moveto
46258.1 36356.6 lineto
46651.8 35512.9 lineto
47045.5 36356.6 lineto
47045.5 35175.5 lineto
stroke
newpath
48114.1 35175.5 moveto
48114.1 35794.2 lineto
48057.9 35906.6 lineto
47945.4 35962.9 lineto
47720.4 35962.9 lineto
47607.9 35906.6 lineto
stroke
newpath
48114.1 35231.7 moveto
48001.6 35175.5 lineto
47720.4 35175.5 lineto
47607.9 35231.7 lineto
47551.7 35344.2 lineto
47551.7 35456.7 lineto
47607.9 35569.2 lineto
47720.4 35625.4 lineto
48001.6 35625.4 lineto
48114.1 35681.7 lineto
stroke
newpath
48676.5 35962.9 moveto
48676.5 34781.8 lineto
stroke
newpath
48676.5 35906.6 moveto
48789 35962.9 lineto
49014 35962.9 lineto
49126.5 35906.6 lineto
49182.7 35850.4 lineto
49239 35737.9 lineto
49239 35400.5 lineto
49182.7 35288 lineto
49126.5 35231.7 lineto
49014 35175.5 lineto
48789 35175.5 lineto
48676.5 35231.7 lineto
stroke
newpath
49745.1 35288 moveto
49801.4 35231.7 lineto
49745.1 35175.5 lineto
49688.9 35231.7 lineto
49745.1 35288 lineto
49745.1 35175.5 lineto
stroke
newpath
49745.1 35906.6 moveto
49801.4 35850.4 lineto
49745.1 35794.2 lineto
49688.9 35850.4 lineto
49745.1 35906.6 lineto
49745.1 35794.2 lineto
stroke
newpath
38288.6 34344.4 moveto
40518.5 32114.5 lineto
stroke
newpath
40518.5 34344.4 moveto
38288.6 32114.5 lineto
stroke
0 0 0 setrgbcolor
0 0 0 setrgbcolor
newpath
41533.7 33876.3 moveto
42264.8 33876.3 lineto
41871.1 33426.3 lineto
42039.9 33426.3 lineto
42152.3 33370.1 lineto
42208.6 33313.8 lineto
42264.8 33201.4 lineto
42264.8 32920.1 lineto
42208.6 32807.7 lineto
42152.3 32751.4 lineto
42039.9 32695.2 lineto
41702.4 32695.2 lineto
41589.9 32751.4 lineto
41533.7 32807.7 lineto
stroke
newpath
42771 32807.7 moveto
42827.3 32751.4 lineto
42771 32695.2 lineto
42714.8 32751.4 lineto
42771 32807.7 lineto
42771 32695.2 lineto
stroke
newpath
43277.2 33763.8 moveto
43333.4 33820 lineto
43445.9 33876.3 lineto
43727.1 33876.3 lineto
43839.6 33820 lineto
43895.9 33763.8 lineto
43952.1 33651.3 lineto
43952.1 33538.8 lineto
43895.9 33370.1 lineto
43221 32695.2 lineto
43952.1 32695.2 lineto
stroke
newpath
44683.3 33876.3 moveto
44795.8 33876.3 lineto
44908.2 33820 lineto
44964.5 33763.8 lineto
45020.7 33651.3 lineto
45077 33426.3 lineto
45077 33145.1 lineto
45020.7 32920.1 lineto
44964.5 32807.7 lineto
44908.2 32751.4 lineto
44795.8 32695.2 lineto
44683.3 32695.2 lineto
44570.8 32751.4 lineto
44514.5 32807.7 lineto
44458.3 32920.1 lineto
44402.1 33145.1 lineto
44402.1 33426.3 lineto
44458.3 33651.3 lineto
44514.5 33763.8 lineto
44570.8 33820 lineto
44683.3 33876.3 lineto
stroke
newpath
45583.2 32695.2 moveto
45583.2 33482.6 lineto
stroke
newpath
45583.2 33370.1 moveto
45639.4 33426.3 lineto
45751.9 33482.6 lineto
45920.6 33482.6 lineto
46033.1 33426.3 lineto
46089.3 33313.8 lineto
46089.3 32695.2 lineto
stroke
newpath
46089.3 33313.8 moveto
46145.6 33426.3 lineto
46258.1 33482.6 lineto
46426.8 33482.6 lineto
46539.3 33426.3 lineto
46595.5 33313.8 lineto
46595.5 32695.2 lineto
stroke
newpath
47158 32695.2 moveto
47158 33482.6 lineto
stroke
newpath
47158 33370.1 moveto
47214.2 33426.3 lineto
47326.7 33482.6 lineto
47495.4 33482.6 lineto
47607.9 33426.3 lineto
47664.1 33313.8 lineto
47664.1 32695.2 lineto
stroke
newpath
47664.1 33313.8 moveto
47720.4 33426.3 lineto
47832.9 33482.6 lineto
48001.6 33482.6 lineto
48114.1 33426.3 lineto
48170.3 33313.8 lineto
48170.3 32695.2 lineto
stroke
newpath
50476.3 33932.5 moveto
49463.9 32414 lineto
stroke
newpath
51994.9 33876.3 moveto
52107.3 33876.3 lineto
52219.8 33820 lineto
52276.1 33763.8 lineto
52332.3 33651.3 lineto
52388.6 33426.3 lineto
52388.6 33145.1 lineto
52332.3 32920.1 lineto
52276.1 32807.7 lineto
52219.8 32751.4 lineto
52107.3 32695.2 lineto
51994.9 32695.2 lineto
51882.4 32751.4 lineto
51826.1 32807.7 lineto
51769.9 32920.1 lineto
51713.6 33145.1 lineto
51713.6 33426.3 lineto
51769.9 33651.3 lineto
51826.1 33763.8 lineto
51882.4 33820 lineto
51994.9 33876.3 lineto
stroke
newpath
52894.7 32807.7 moveto
52951 32751.4 lineto
52894.7 32695.2 lineto
52838.5 32751.4 lineto
52894.7 32807.7 lineto
52894.7 32695.2 lineto
stroke
newpath
54075.8 32695.2 moveto
53400.9 32695.2 lineto
stroke
newpath
53738.4 32695.2 moveto
53738.4 33876.3 lineto
53625.9 33707.5 lineto
53513.4 33595.1 lineto
53400.9 33538.8 lineto
stroke
newpath
54525.8 33763.8 moveto
54582 33820 lineto
54694.5 33876.3 lineto
54975.7 33876.3 lineto
55088.2 33820 lineto
55144.5 33763.8 lineto
55200.7 33651.3 lineto
55200.7 33538.8 lineto
55144.5 33370.1 lineto
54469.5 32695.2 lineto
55200.7 32695.2 lineto
stroke
newpath
56213.1 33876.3 moveto
55988.1 33876.3 lineto
55875.6 33820 lineto
55819.4 33763.8 lineto
55706.9 33595.1 lineto
55650.7 33370.1 lineto
55650.7 32920.1 lineto
55706.9 32807.7 lineto
55763.1 32751.4 lineto
55875.6 32695.2 lineto
56100.6 32695.2 lineto
56213.1 32751.4 lineto
56269.3 32807.7 lineto
56325.6 32920.1 lineto
56325.6 33201.4 lineto
56269.3 33313.8 lineto
56213.1 33370.1 lineto
56100.6 33426.3 lineto
55875.6 33426.3 lineto
55763.1 33370.1 lineto
55706.9 33313.8 lineto
55650.7 33201.4 lineto
stroke
newpath
56775.5 33876.3 moveto
56775.5 33651.3 lineto
stroke
newpath
57225.5 33876.3 moveto
57225.5 33651.3 lineto
stroke
newpath
58969 32245.2 moveto
58912.7 32301.5 lineto
58800.3 32470.2 lineto
58744 32582.7 lineto
58687.8 32751.4 lineto
58631.5 33032.6 lineto
58631.5 33257.6 lineto
58687.8 33538.8 lineto
58744 33707.5 lineto
58800.3 33820 lineto
58912.7 33988.8 lineto
58969 34045 lineto
stroke
newpath
59925.1 33482.6 moveto
59925.1 32695.2 lineto
stroke
newpath
59643.9 33932.5 moveto
59362.7 33088.9 lineto
60093.8 33088.9 lineto
stroke
newpath
61443.7 32695.2 moveto
61443.7 33876.3 lineto
stroke
newpath
61949.9 32695.2 moveto
61949.9 33313.8 lineto
61893.6 33426.3 lineto
61781.1 33482.6 lineto
61612.4 33482.6 lineto
61499.9 33426.3 lineto
61443.7 33370.1 lineto
stroke
newpath
62681 32695.2 moveto
62568.5 32751.4 lineto
62512.3 32807.7 lineto
62456.1 32920.1 lineto
62456.1 33257.6 lineto
62512.3 33370.1 lineto
62568.5 33426.3 lineto
62681 33482.6 lineto
62849.8 33482.6 lineto
62962.2 33426.3 lineto
63018.5 33370.1 lineto
63074.7 33257.6 lineto
63074.7 32920.1 lineto
63018.5 32807.7 lineto
62962.2 32751.4 lineto
62849.8 32695.2 lineto
62681 32695.2 lineto
stroke
newpath
63749.6 32695.2 moveto
63637.2 32751.4 lineto
63580.9 32863.9 lineto
63580.9 33876.3 lineto
stroke
newpath
64649.5 32751.4 moveto
64537 32695.2 lineto
64312.1 32695.2 lineto
64199.6 32751.4 lineto
64143.3 32863.9 lineto
64143.3 33313.8 lineto
64199.6 33426.3 lineto
64312.1 33482.6 lineto
64537 33482.6 lineto
64649.5 33426.3 lineto
64705.8 33313.8 lineto
64705.8 33201.4 lineto
64143.3 33088.9 lineto
stroke
newpath
65155.7 32751.4 moveto
65268.2 32695.2 lineto
65493.2 32695.2 lineto
65605.7 32751.4 lineto
65661.9 32863.9 lineto
65661.9 32920.1 lineto
65605.7 33032.6 lineto
65493.2 33088.9 lineto
65324.4 33088.9 lineto
65212 33145.1 lineto
65155.7 33257.6 lineto
65155.7 33313.8 lineto
65212 33426.3 lineto
65324.4 33482.6 lineto
65493.2 33482.6 lineto
65605.7 33426.3 lineto
stroke
newpath
66055.6 32245.2 moveto
66111.8 32301.5 lineto
66224.3 32470.2 lineto
66280.6 32582.7 lineto
66336.8 32751.4 lineto
66393.1 33032.6 lineto
66393.1 33257.6 lineto
66336.8 33538.8 lineto
66280.6 33707.5 lineto
66224.3 33820 lineto
66111.8 33988.8 lineto
66055.6 34045 lineto
stroke
newpath
68192.8 32245.2 moveto
68136.6 32301.5 lineto
68024.1 32470.2 lineto
67967.9 32582.7 lineto
67911.6 32751.4 lineto
67855.4 33032.6 lineto
67855.4 33257.6 lineto
67911.6 33538.8 lineto
67967.9 33707.5 lineto
68024.1 33820 lineto
68136.6 33988.8 lineto
68192.8 34045 lineto
stroke
newpath
68642.8 33482.6 moveto
68642.8 32695.2 lineto
stroke
newpath
68642.8 33370.1 moveto
68699 33426.3 lineto
68811.5 33482.6 lineto
68980.2 33482.6 lineto
69092.7 33426.3 lineto
69149 33313.8 lineto
69149 32695.2 lineto
stroke
newpath
69880.1 32695.2 moveto
69767.6 32751.4 lineto
69711.4 32807.7 lineto
69655.2 32920.1 lineto
69655.2 33257.6 lineto
69711.4 33370.1 lineto
69767.6 33426.3 lineto
69880.1 33482.6 lineto
70048.9 33482.6 lineto
70161.3 33426.3 lineto
70217.6 33370.1 lineto
70273.8 33257.6 lineto
70273.8 32920.1 lineto
70217.6 32807.7 lineto
70161.3 32751.4 lineto
70048.9 32695.2 lineto
69880.1 32695.2 lineto
stroke
newpath
70611.3 33482.6 moveto
71061.2 33482.6 lineto
stroke
newpath
70780 33876.3 moveto
70780 32863.9 lineto
70836.3 32751.4 lineto
70948.7 32695.2 lineto
71061.2 32695.2 lineto
stroke
newpath
72354.8 33482.6 moveto
72354.8 32301.5 lineto
stroke
newpath
72354.8 33426.3 moveto
72467.3 33482.6 lineto
72692.3 33482.6 lineto
72804.8 33426.3 lineto
72861 33370.1 lineto
72917.2 33257.6 lineto
72917.2 32920.1 lineto
72861 32807.7 lineto
72804.8 32751.4 lineto
72692.3 32695.2 lineto
72467.3 32695.2 lineto
72354.8 32751.4 lineto
stroke
newpath
73592.2 32695.2 moveto
73479.7 32751.4 lineto
73423.4 32863.9 lineto
73423.4 33876.3 lineto
stroke
newpath
74548.3 32695.2 moveto
74548.3 33313.8 lineto
74492 33426.3 lineto
74379.6 33482.6 lineto
74154.6 33482.6 lineto
74042.1 33426.3 lineto
stroke
newpath
74548.3 32751.4 moveto
74435.8 32695.2 lineto
74154.6 32695.2 lineto
74042.1 32751.4 lineto
73985.9 32863.9 lineto
73985.9 32976.4 lineto
74042.1 33088.9 lineto
74154.6 33145.1 lineto
74435.8 33145.1 lineto
74548.3 33201.4 lineto
stroke
newpath
74942 33482.6 moveto
75391.9 33482.6 lineto
stroke
newpath
75110.7 33876.3 moveto
75110.7 32863.9 lineto
75167 32751.4 lineto
75279.4 32695.2 lineto
75391.9 32695.2 lineto
stroke
newpath
76235.6 32751.4 moveto
76123.1 32695.2 lineto
75898.1 32695.2 lineto
75785.6 32751.4 lineto
75729.4 32863.9 lineto
75729.4 33313.8 lineto
75785.6 33426.3 lineto
75898.1 33482.6 lineto
76123.1 33482.6 lineto
76235.6 33426.3 lineto
76291.8 33313.8 lineto
76291.8 33201.4 lineto
75729.4 33088.9 lineto
stroke
newpath
77304.2 32695.2 moveto
77304.2 33876.3 lineto
stroke
newpath
77304.2 32751.4 moveto
77191.7 32695.2 lineto
76966.7 32695.2 lineto
76854.3 32751.4 lineto
76798 32807.7 lineto
76741.8 32920.1 lineto
76741.8 33257.6 lineto
76798 33370.1 lineto
76854.3 33426.3 lineto
76966.7 33482.6 lineto
77191.7 33482.6 lineto
77304.2 33426.3 lineto
stroke
newpath
77754.1 32245.2 moveto
77810.4 32301.5 lineto
77922.9 32470.2 lineto
77979.1 32582.7 lineto
78035.4 32751.4 lineto
78091.6 33032.6 lineto
78091.6 33257.6 lineto
78035.4 33538.8 lineto
77979.1 33707.5 lineto
77922.9 33820 lineto
77810.4 33988.8 lineto
77754.1 34045 lineto
stroke
showpage
grestore
%%EOF
